# Fdb version 3
["pdflatex"] 1567333296 "main.tex" "build/main.pdf" "main" 1567333297
  "/dev/null" 1567328879 0 d41d8cd98f00b204e9800998ecf8427e ""
  "/home/maximilian/.local/texlive/2018/texmf-dist/fonts/type1/public/amsfonts/cm/cmmi10.pfb" 1480098733 36299 5f9df58c2139e7edcf37c8fca4bd384d ""
  "/home/maximilian/.local/texlive/2018/texmf-dist/fonts/type1/public/amsfonts/cm/cmr10.pfb" 1480098733 35752 024fb6c41858982481f6968b5fc26508 ""
  "/home/maximilian/.local/texlive/2018/texmf-dist/fonts/type1/public/amsfonts/cm/cmr7.pfb" 1480098733 32762 224316ccc9ad3ca0423a14971cfa7fc1 ""
  "/home/maximilian/.local/texlive/2018/texmf-dist/tex/context/base/mkii/supp-pdf.mkii" 1461363279 71627 94eb9990bed73c364d7f53f960cc8c5b ""
  "/home/maximilian/.local/texlive/2018/texmf-dist/tex/generic/ifxetex/ifxetex.sty" 1480098815 1458 43ab4710dc82f3edeabecd0d099626b2 ""
  "/home/maximilian/.local/texlive/2018/texmf-dist/tex/generic/oberdiek/etexcmds.sty" 1463608860 7612 729a8cc22a1ee0029997c7f74717ae05 ""
  "/home/maximilian/.local/texlive/2018/texmf-dist/tex/generic/oberdiek/ifluatex.sty" 1463608860 7324 2310d1247db0114eb4726807c8837a0e ""
  "/home/maximilian/.local/texlive/2018/texmf-dist/tex/generic/oberdiek/ifpdf.sty" 1536443070 1300 96620a7d94bc0ceb261d968770ce8315 ""
  "/home/maximilian/.local/texlive/2018/texmf-dist/tex/generic/oberdiek/infwarerr.sty" 1463608860 8253 473e0e41f9adadb1977e8631b8f72ea6 ""
  "/home/maximilian/.local/texlive/2018/texmf-dist/tex/generic/oberdiek/kvdefinekeys.sty" 1463608860 5152 b67a3a964ad9851e095110c854a1d461 ""
  "/home/maximilian/.local/texlive/2018/texmf-dist/tex/generic/oberdiek/kvsetkeys.sty" 1463608860 14040 ac8866aac45982ac84021584b0abb252 ""
  "/home/maximilian/.local/texlive/2018/texmf-dist/tex/generic/oberdiek/ltxcmds.sty" 1463608860 18425 5b3c0c59d76fac78978b5558e83c1f36 ""
  "/home/maximilian/.local/texlive/2018/texmf-dist/tex/generic/oberdiek/pdftexcmds.sty" 1536701967 20457 0d2e642faacbb41c9d72690f8cc529cd ""
  "/home/maximilian/.local/texlive/2018/texmf-dist/tex/generic/pgf/basiclayer/pgfcore.code.tex" 1546728038 969 03f6c464fd951d8725b3a4959f4c6de0 ""
  "/home/maximilian/.local/texlive/2018/texmf-dist/tex/generic/pgf/basiclayer/pgfcorearrows.code.tex" 1546728038 43820 bc6cf5aa959817914ace33f5c6232161 ""
  "/home/maximilian/.local/texlive/2018/texmf-dist/tex/generic/pgf/basiclayer/pgfcoreexternal.code.tex" 1546728038 19327 d5d8b64d8e8902e0467e95a8e7c7696a ""
  "/home/maximilian/.local/texlive/2018/texmf-dist/tex/generic/pgf/basiclayer/pgfcoregraphicstate.code.tex" 1546728038 6038 d639d02574be9a72f3c602c2a3510e02 ""
  "/home/maximilian/.local/texlive/2018/texmf-dist/tex/generic/pgf/basiclayer/pgfcoreimage.code.tex" 1546728038 6948 284bbe3c9a7ca0a826c1c03895e69b9f ""
  "/home/maximilian/.local/texlive/2018/texmf-dist/tex/generic/pgf/basiclayer/pgfcorelayers.code.tex" 1546728038 4883 a6f3eb1f71d8c4affaf43a169828b043 ""
  "/home/maximilian/.local/texlive/2018/texmf-dist/tex/generic/pgf/basiclayer/pgfcoreobjects.code.tex" 1546728038 2544 3b1b198fd49f01e328adc9162a07b213 ""
  "/home/maximilian/.local/texlive/2018/texmf-dist/tex/generic/pgf/basiclayer/pgfcorepathconstruct.code.tex" 1546728038 44195 134d5eb267e64d2a6b6dc75008e7c5fd ""
  "/home/maximilian/.local/texlive/2018/texmf-dist/tex/generic/pgf/basiclayer/pgfcorepathprocessing.code.tex" 1546728038 17311 3092579be20ef0f229c42ad3f09da85c ""
  "/home/maximilian/.local/texlive/2018/texmf-dist/tex/generic/pgf/basiclayer/pgfcorepathusage.code.tex" 1546728038 21302 d6c4b340248adbe650ebf6ca76bdccca ""
  "/home/maximilian/.local/texlive/2018/texmf-dist/tex/generic/pgf/basiclayer/pgfcorepatterns.code.tex" 1546728038 9541 9d1ee06aeaf948a30f150e450eb2d944 ""
  "/home/maximilian/.local/texlive/2018/texmf-dist/tex/generic/pgf/basiclayer/pgfcorepoints.code.tex" 1546728038 35255 97ed2fc851a68f753ba47b7329c64cd6 ""
  "/home/maximilian/.local/texlive/2018/texmf-dist/tex/generic/pgf/basiclayer/pgfcorequick.code.tex" 1546728038 2965 502761b60f43ab2de5ecb2f4625163ae ""
  "/home/maximilian/.local/texlive/2018/texmf-dist/tex/generic/pgf/basiclayer/pgfcorerdf.code.tex" 1546728038 5196 f8c5c775d4d6e2cb050392127cabda72 ""
  "/home/maximilian/.local/texlive/2018/texmf-dist/tex/generic/pgf/basiclayer/pgfcorescopes.code.tex" 1546728038 20769 880132a4052c1f4e99080e076592048d ""
  "/home/maximilian/.local/texlive/2018/texmf-dist/tex/generic/pgf/basiclayer/pgfcoreshade.code.tex" 1546728038 21441 8406a93495c4d3eb13cc93ff27ed5594 ""
  "/home/maximilian/.local/texlive/2018/texmf-dist/tex/generic/pgf/basiclayer/pgfcoretransformations.code.tex" 1546728038 21989 266e83c51fe41eb8b8d5e6896dc71cc1 ""
  "/home/maximilian/.local/texlive/2018/texmf-dist/tex/generic/pgf/basiclayer/pgfcoretransparency.code.tex" 1546728038 8842 5cc856e132fac404805c6da091779283 ""
  "/home/maximilian/.local/texlive/2018/texmf-dist/tex/generic/pgf/frontendlayer/tikz/libraries/tikzlibraryangles.code.tex" 1546728038 3614 836e138b8fb7ed65c84eaf3f529c7039 ""
  "/home/maximilian/.local/texlive/2018/texmf-dist/tex/generic/pgf/frontendlayer/tikz/libraries/tikzlibraryarrows.code.tex" 1546728038 319 8fc6edce901e074ba09de320a8fc686b ""
  "/home/maximilian/.local/texlive/2018/texmf-dist/tex/generic/pgf/frontendlayer/tikz/libraries/tikzlibraryquotes.code.tex" 1546728038 3931 5fb0eaae891015bd03ff91a20998aec4 ""
  "/home/maximilian/.local/texlive/2018/texmf-dist/tex/generic/pgf/frontendlayer/tikz/libraries/tikzlibrarytopaths.code.tex" 1546728038 11605 3cfbfe82478675de992de878ae30cba4 ""
  "/home/maximilian/.local/texlive/2018/texmf-dist/tex/generic/pgf/frontendlayer/tikz/tikz.code.tex" 1549146993 183429 981b5b2f94d03d6b4fb30ea9ab9200c8 ""
  "/home/maximilian/.local/texlive/2018/texmf-dist/tex/generic/pgf/libraries/pgflibraryarrows.code.tex" 1546728038 31874 d843d507175f2bdfa3abf01f0349dac8 ""
  "/home/maximilian/.local/texlive/2018/texmf-dist/tex/generic/pgf/libraries/pgflibraryplothandlers.code.tex" 1546728038 32995 a4d54c043ae5274ceaaddeb36ad43a6f ""
  "/home/maximilian/.local/texlive/2018/texmf-dist/tex/generic/pgf/math/pgfmath.code.tex" 1546728038 520 910e22995dad318235ba8e2fb536bf3a ""
  "/home/maximilian/.local/texlive/2018/texmf-dist/tex/generic/pgf/math/pgfmathcalc.code.tex" 1393459310 13416 940ea6971d7a65dc440d3479939c66ae ""
  "/home/maximilian/.local/texlive/2018/texmf-dist/tex/generic/pgf/math/pgfmathfloat.code.tex" 1546728038 95102 474fa5793f7f3067e17a5df9b98218c1 ""
  "/home/maximilian/.local/texlive/2018/texmf-dist/tex/generic/pgf/math/pgfmathfunctions.base.code.tex" 1393459310 9375 5adc70f722abd29fc250d59e0694b548 ""
  "/home/maximilian/.local/texlive/2018/texmf-dist/tex/generic/pgf/math/pgfmathfunctions.basic.code.tex" 1439074469 22069 7c21c42b15718ce922f36235be360490 ""
  "/home/maximilian/.local/texlive/2018/texmf-dist/tex/generic/pgf/math/pgfmathfunctions.code.tex" 1439074469 8210 a7be5b52ef3d2c087b7dc3d52898b67e ""
  "/home/maximilian/.local/texlive/2018/texmf-dist/tex/generic/pgf/math/pgfmathfunctions.comparison.code.tex" 1288312291 3534 c7f28fbac13616513e513efe93b8569b ""
  "/home/maximilian/.local/texlive/2018/texmf-dist/tex/generic/pgf/math/pgfmathfunctions.integerarithmetics.code.tex" 1546728038 3168 6189b7a28d77f4af65d3a14e7f03c083 ""
  "/home/maximilian/.local/texlive/2018/texmf-dist/tex/generic/pgf/math/pgfmathfunctions.misc.code.tex" 1439074469 9289 261407875b9dbb0194691c3eb893610f ""
  "/home/maximilian/.local/texlive/2018/texmf-dist/tex/generic/pgf/math/pgfmathfunctions.random.code.tex" 1439074469 7078 946ddf4a7e57219b6afdbad98eb6731b ""
  "/home/maximilian/.local/texlive/2018/texmf-dist/tex/generic/pgf/math/pgfmathfunctions.round.code.tex" 1546728038 2942 88413c69264c367e851538882cebd4ab ""
  "/home/maximilian/.local/texlive/2018/texmf-dist/tex/generic/pgf/math/pgfmathfunctions.trigonometric.code.tex" 1439074469 92284 dcf023dbaa84e6c50e11c2f79fe8cfa6 ""
  "/home/maximilian/.local/texlive/2018/texmf-dist/tex/generic/pgf/math/pgfmathparser.code.tex" 1546728038 36120 4aaaf2a5a988fdb79e316766ce090110 ""
  "/home/maximilian/.local/texlive/2018/texmf-dist/tex/generic/pgf/math/pgfmathutil.code.tex" 1393459310 7099 f44d505bae6c7c2b933cdd63441db4b9 ""
  "/home/maximilian/.local/texlive/2018/texmf-dist/tex/generic/pgf/modules/pgfmodulematrix.code.tex" 1546728038 20850 69672e3a68af93b0052e22743ab29325 ""
  "/home/maximilian/.local/texlive/2018/texmf-dist/tex/generic/pgf/modules/pgfmoduleplot.code.tex" 1546728038 16105 ad277a81d51151a43eada2f59e9c7f63 ""
  "/home/maximilian/.local/texlive/2018/texmf-dist/tex/generic/pgf/modules/pgfmoduleshapes.code.tex" 1546728038 43225 550a85f34e942cf510108872e6d17824 ""
  "/home/maximilian/.local/texlive/2018/texmf-dist/tex/generic/pgf/pgf.revision.tex" 1549146993 463 2e8ae5ae7338c3efc0d56a1c648a2938 ""
  "/home/maximilian/.local/texlive/2018/texmf-dist/tex/generic/pgf/systemlayer/pgf.cfg" 1546728038 929 c7e63c9d336acc04681ebf5d5974ff79 ""
  "/home/maximilian/.local/texlive/2018/texmf-dist/tex/generic/pgf/systemlayer/pgfsys-common-pdf.def" 1546728038 5554 eaa8269939dc6788f137cf082148c630 ""
  "/home/maximilian/.local/texlive/2018/texmf-dist/tex/generic/pgf/systemlayer/pgfsys-pdftex.def" 1546728038 13467 81cbde9036aeefde6ced72c35f65a11e ""
  "/home/maximilian/.local/texlive/2018/texmf-dist/tex/generic/pgf/systemlayer/pgfsys.code.tex" 1546728038 60336 26aaa566685b708e5bbad33b1fea85b6 ""
  "/home/maximilian/.local/texlive/2018/texmf-dist/tex/generic/pgf/systemlayer/pgfsysprotocol.code.tex" 1546728038 1895 a804dfc15a55439296d72fd96ed29ac7 ""
  "/home/maximilian/.local/texlive/2018/texmf-dist/tex/generic/pgf/systemlayer/pgfsyssoftpath.code.tex" 1546728038 7793 fb7bd1e1f7162b9073fa1d5356c99d44 ""
  "/home/maximilian/.local/texlive/2018/texmf-dist/tex/generic/pgf/utilities/pgffor.code.tex" 1546728038 22321 e57de05109d919549a27eaaf05c180fc ""
  "/home/maximilian/.local/texlive/2018/texmf-dist/tex/generic/pgf/utilities/pgfkeys.code.tex" 1546728038 36455 3b0b1cf51efce44b8791b93c27bbca48 ""
  "/home/maximilian/.local/texlive/2018/texmf-dist/tex/generic/pgf/utilities/pgfkeysfiltered.code.tex" 1546728038 33347 679274d4aa67c6bc8f5f234caa49367d ""
  "/home/maximilian/.local/texlive/2018/texmf-dist/tex/generic/pgf/utilities/pgfrcs.code.tex" 1546728038 2311 e273ccf1220640ccce91d49a21bd5eec ""
  "/home/maximilian/.local/texlive/2018/texmf-dist/tex/generic/pgf/utilities/pgfutil-common-lists.tex" 1393459310 6833 114eda2cf1d348e0e7e477a1a4dc1941 ""
  "/home/maximilian/.local/texlive/2018/texmf-dist/tex/generic/pgf/utilities/pgfutil-common.tex" 1546728038 26409 498c460a45ec6d31d3794cb500da29ed ""
  "/home/maximilian/.local/texlive/2018/texmf-dist/tex/generic/pgf/utilities/pgfutil-latex.def" 1546728038 5845 c578abb59cb8ad0a9156fdb1b59cfa38 ""
  "/home/maximilian/.local/texlive/2018/texmf-dist/tex/generic/xkeyval/keyval.tex" 1480098819 2725 fc34ef3ccb37ba15a640e8fca6190bca ""
  "/home/maximilian/.local/texlive/2018/texmf-dist/tex/generic/xkeyval/xkeyval.tex" 1480098819 19231 26434a5656c684f5ffb1f26f98006baa ""
  "/home/maximilian/.local/texlive/2018/texmf-dist/tex/generic/xkeyval/xkvutils.tex" 1480098819 7677 6f5ce7c1124cad7ec57d05b2562bd8fe ""
  "/home/maximilian/.local/texlive/2018/texmf-dist/tex/latex/base/article.cls" 1544567569 19933 3097d1b31d3c45dc957096f554529032 ""
  "/home/maximilian/.local/texlive/2018/texmf-dist/tex/latex/base/size10.clo" 1544567569 8294 6d6e23d5169c0d89d173f6c7e08a005a ""
  "/home/maximilian/.local/texlive/2018/texmf-dist/tex/latex/graphics-cfg/color.cfg" 1480098830 1213 620bba36b25224fa9b7e1ccb4ecb76fd ""
  "/home/maximilian/.local/texlive/2018/texmf-dist/tex/latex/graphics-cfg/graphics.cfg" 1480098830 1224 978390e9c2234eab29404bc21b268d1e ""
  "/home/maximilian/.local/texlive/2018/texmf-dist/tex/latex/graphics-def/pdftex.def" 1515537368 17334 520b9b85ad8a2a48eda3f643e27a5179 ""
  "/home/maximilian/.local/texlive/2018/texmf-dist/tex/latex/graphics/graphics.sty" 1523134385 15272 5a97061616e0c8b2aa79c6615ff769f4 ""
  "/home/maximilian/.local/texlive/2018/texmf-dist/tex/latex/graphics/graphicx.sty" 1523134385 9063 d0a305975932762117cd1f06a582f896 ""
  "/home/maximilian/.local/texlive/2018/texmf-dist/tex/latex/graphics/trig.sty" 1523134385 3977 cb9221976ed8a183afad65b59aa8629a ""
  "/home/maximilian/.local/texlive/2018/texmf-dist/tex/latex/latexconfig/epstopdf-sys.cfg" 1480098833 678 4792914a8f45be57bb98413425e4c7af ""
  "/home/maximilian/.local/texlive/2018/texmf-dist/tex/latex/ms/everyshi.sty" 1480098835 3878 6aa7c08ff2621006e0603349e40a30a8 ""
  "/home/maximilian/.local/texlive/2018/texmf-dist/tex/latex/oberdiek/epstopdf-base.sty" 1463608860 12095 5337833c991d80788a43d3ce26bd1c46 ""
  "/home/maximilian/.local/texlive/2018/texmf-dist/tex/latex/oberdiek/grfext.sty" 1463608860 7075 2fe3d848bba95f139de11ded085e74aa ""
  "/home/maximilian/.local/texlive/2018/texmf-dist/tex/latex/oberdiek/kvoptions.sty" 1463608860 22417 1d9df1eb66848aa31b18a593099cf45c ""
  "/home/maximilian/.local/texlive/2018/texmf-dist/tex/latex/pgf/basiclayer/pgf.sty" 1546728038 1090 d20f587ea9464d1841bd0d13d3ff9856 ""
  "/home/maximilian/.local/texlive/2018/texmf-dist/tex/latex/pgf/basiclayer/pgfcore.sty" 1288312291 410 5bf12ea7330e5f12c445332a4fe9a263 ""
  "/home/maximilian/.local/texlive/2018/texmf-dist/tex/latex/pgf/compatibility/pgfcomp-version-0-65.sty" 1546728038 21013 e98e1aaaf40d31632787c2bd25d24b57 ""
  "/home/maximilian/.local/texlive/2018/texmf-dist/tex/latex/pgf/compatibility/pgfcomp-version-1-18.sty" 1546728038 989 2cf3da8e8ec55131c49389428d565e37 ""
  "/home/maximilian/.local/texlive/2018/texmf-dist/tex/latex/pgf/frontendlayer/tikz.sty" 1203877327 339 592cf35cba3d400082b8a9a5d0199d70 ""
  "/home/maximilian/.local/texlive/2018/texmf-dist/tex/latex/pgf/math/pgfmath.sty" 1393459310 306 0796eafca5e159e6ec2167a6d22d81b1 ""
  "/home/maximilian/.local/texlive/2018/texmf-dist/tex/latex/pgf/systemlayer/pgfsys.sty" 1393459310 443 0b2e781830192df35c0fd357cf13e26e ""
  "/home/maximilian/.local/texlive/2018/texmf-dist/tex/latex/pgf/utilities/pgffor.sty" 1393459310 348 8927fde343487e003b01a4c2ca34073b ""
  "/home/maximilian/.local/texlive/2018/texmf-dist/tex/latex/pgf/utilities/pgfkeys.sty" 1203727794 274 4cad6e665cc93ac2ac979039a94fa1e1 ""
  "/home/maximilian/.local/texlive/2018/texmf-dist/tex/latex/pgf/utilities/pgfrcs.sty" 1203877327 325 2bcd023400636339210573e2b3ee298b ""
  "/home/maximilian/.local/texlive/2018/texmf-dist/tex/latex/standalone/standalone.cfg" 1522098998 1015 662b4d7ad816b857a598284525f5c75e ""
  "/home/maximilian/.local/texlive/2018/texmf-dist/tex/latex/standalone/standalone.cls" 1522098998 28890 df75e6d37f47b7e27bff3f37375336b3 ""
  "/home/maximilian/.local/texlive/2018/texmf-dist/tex/latex/tools/shellesc.sty" 1523050425 3268 77605a04b5525f60d58f55c47c0771c5 ""
  "/home/maximilian/.local/texlive/2018/texmf-dist/tex/latex/xcolor/xcolor.sty" 1480098843 55589 34128738f682d033422ca125f82e5d62 ""
  "/home/maximilian/.local/texlive/2018/texmf-dist/tex/latex/xkeyval/xkeyval.sty" 1480098843 4962 9c1069474ff71dbc47d5006555e352d3 ""
  "/home/maximilian/.local/texlive/2018/texmf-dist/web2c/texmf.cnf" 1544742277 35176 ce7fee66be1fb01dfc6b702a7dbfa0ea ""
  "/home/maximilian/.local/texlive/2018/texmf-var/fonts/map/pdftex/updmap/pdftex.map" 1551863411 3236132 08aa2588b0161110fc210543546014e6 ""
  "/home/maximilian/.local/texlive/2018/texmf-var/web2c/pdftex/pdflatex.fmt" 1550499781 4233226 e39cc5cf747e29aac141a6f4a77e54bd ""
  "/home/maximilian/.local/texlive/2018/texmf.cnf" 1543830480 455 5b996dcaa0eb4ef14a83b026bc0a008c ""
  "build/main.aux" 1567333297 8 a94a2480d3289e625eea47cd1b285758 ""
  "main.tex" 1567333295 1009 7e6cb4f7d4f6373594e9277f05cd3fb5 ""
  (generated)
  "build/main.aux"
  "build/main.log"
  "build/main.pdf"
