PWD /home/maximilian/Documents/05-NextBigThink/fast-and-fearless/docs/direction_reconstruction
INPUT /home/maximilian/.local/texlive/2018/texmf.cnf
INPUT /home/maximilian/.local/texlive/2018/texmf-dist/web2c/texmf.cnf
INPUT /home/maximilian/.local/texlive/2018/texmf-var/web2c/pdftex/pdflatex.fmt
INPUT place_reconstruction.tex
OUTPUT build/place_reconstruction.log
INPUT /home/maximilian/.local/texlive/2018/texmf-dist/tex/latex/standalone/standalone.cls
INPUT /home/maximilian/.local/texlive/2018/texmf-dist/tex/latex/standalone/standalone.cls
INPUT /home/maximilian/.local/texlive/2018/texmf-dist/tex/latex/tools/shellesc.sty
INPUT /home/maximilian/.local/texlive/2018/texmf-dist/tex/latex/tools/shellesc.sty
INPUT /home/maximilian/.local/texlive/2018/texmf-dist/tex/latex/tools/shellesc.sty
INPUT /home/maximilian/.local/texlive/2018/texmf-dist/tex/generic/oberdiek/ifluatex.sty
INPUT /home/maximilian/.local/texlive/2018/texmf-dist/tex/generic/oberdiek/ifluatex.sty
INPUT /home/maximilian/.local/texlive/2018/texmf-dist/tex/generic/oberdiek/ifluatex.sty
INPUT /home/maximilian/.local/texlive/2018/texmf-dist/tex/generic/oberdiek/ifpdf.sty
INPUT /home/maximilian/.local/texlive/2018/texmf-dist/tex/generic/oberdiek/ifpdf.sty
INPUT /home/maximilian/.local/texlive/2018/texmf-dist/tex/generic/oberdiek/ifpdf.sty
INPUT /home/maximilian/.local/texlive/2018/texmf-dist/tex/generic/ifxetex/ifxetex.sty
INPUT /home/maximilian/.local/texlive/2018/texmf-dist/tex/generic/ifxetex/ifxetex.sty
INPUT /home/maximilian/.local/texlive/2018/texmf-dist/tex/generic/ifxetex/ifxetex.sty
INPUT /home/maximilian/.local/texlive/2018/texmf-dist/tex/latex/xkeyval/xkeyval.sty
INPUT /home/maximilian/.local/texlive/2018/texmf-dist/tex/latex/xkeyval/xkeyval.sty
INPUT /home/maximilian/.local/texlive/2018/texmf-dist/tex/generic/xkeyval/xkeyval.tex
INPUT /home/maximilian/.local/texlive/2018/texmf-dist/tex/generic/xkeyval/xkvutils.tex
INPUT /home/maximilian/.local/texlive/2018/texmf-dist/tex/generic/xkeyval/keyval.tex
INPUT /dev/null
INPUT /home/maximilian/.local/texlive/2018/texmf-dist/tex/latex/standalone/standalone.cfg
INPUT /home/maximilian/.local/texlive/2018/texmf-dist/tex/latex/standalone/standalone.cfg
INPUT /home/maximilian/.local/texlive/2018/texmf-dist/tex/latex/base/article.cls
INPUT /home/maximilian/.local/texlive/2018/texmf-dist/tex/latex/base/article.cls
INPUT /home/maximilian/.local/texlive/2018/texmf-dist/tex/latex/base/size10.clo
INPUT /home/maximilian/.local/texlive/2018/texmf-dist/tex/latex/base/size10.clo
INPUT /home/maximilian/.local/texlive/2018/texmf-dist/tex/latex/pgf/frontendlayer/tikz.sty
INPUT /home/maximilian/.local/texlive/2018/texmf-dist/tex/latex/pgf/frontendlayer/tikz.sty
INPUT /home/maximilian/.local/texlive/2018/texmf-dist/tex/latex/pgf/basiclayer/pgf.sty
INPUT /home/maximilian/.local/texlive/2018/texmf-dist/tex/latex/pgf/basiclayer/pgf.sty
INPUT /home/maximilian/.local/texlive/2018/texmf-dist/tex/latex/pgf/utilities/pgfrcs.sty
INPUT /home/maximilian/.local/texlive/2018/texmf-dist/tex/latex/pgf/utilities/pgfrcs.sty
INPUT /home/maximilian/.local/texlive/2018/texmf-dist/tex/generic/pgf/utilities/pgfutil-common.tex
INPUT /home/maximilian/.local/texlive/2018/texmf-dist/tex/generic/pgf/utilities/pgfutil-common-lists.tex
INPUT /home/maximilian/.local/texlive/2018/texmf-dist/tex/generic/pgf/utilities/pgfutil-latex.def
INPUT /home/maximilian/.local/texlive/2018/texmf-dist/tex/latex/ms/everyshi.sty
INPUT /home/maximilian/.local/texlive/2018/texmf-dist/tex/latex/ms/everyshi.sty
INPUT /home/maximilian/.local/texlive/2018/texmf-dist/tex/generic/pgf/utilities/pgfrcs.code.tex
INPUT /home/maximilian/.local/texlive/2018/texmf-dist/tex/generic/pgf/utilities/pgfrcs.code.tex
INPUT /home/maximilian/.local/texlive/2018/texmf-dist/tex/generic/pgf/pgf.revision.tex
INPUT /home/maximilian/.local/texlive/2018/texmf-dist/tex/generic/pgf/pgf.revision.tex
INPUT /home/maximilian/.local/texlive/2018/texmf-dist/tex/latex/pgf/basiclayer/pgfcore.sty
INPUT /home/maximilian/.local/texlive/2018/texmf-dist/tex/latex/pgf/basiclayer/pgfcore.sty
INPUT /home/maximilian/.local/texlive/2018/texmf-dist/tex/latex/graphics/graphicx.sty
INPUT /home/maximilian/.local/texlive/2018/texmf-dist/tex/latex/graphics/graphicx.sty
INPUT /home/maximilian/.local/texlive/2018/texmf-dist/tex/latex/graphics/graphics.sty
INPUT /home/maximilian/.local/texlive/2018/texmf-dist/tex/latex/graphics/graphics.sty
INPUT /home/maximilian/.local/texlive/2018/texmf-dist/tex/latex/graphics/trig.sty
INPUT /home/maximilian/.local/texlive/2018/texmf-dist/tex/latex/graphics/trig.sty
INPUT /home/maximilian/.local/texlive/2018/texmf-dist/tex/latex/graphics-cfg/graphics.cfg
INPUT /home/maximilian/.local/texlive/2018/texmf-dist/tex/latex/graphics-cfg/graphics.cfg
INPUT /home/maximilian/.local/texlive/2018/texmf-dist/tex/latex/graphics-def/pdftex.def
INPUT /home/maximilian/.local/texlive/2018/texmf-dist/tex/latex/graphics-def/pdftex.def
INPUT /home/maximilian/.local/texlive/2018/texmf-dist/tex/latex/pgf/systemlayer/pgfsys.sty
INPUT /home/maximilian/.local/texlive/2018/texmf-dist/tex/latex/pgf/systemlayer/pgfsys.sty
INPUT /home/maximilian/.local/texlive/2018/texmf-dist/tex/generic/pgf/systemlayer/pgfsys.code.tex
INPUT /home/maximilian/.local/texlive/2018/texmf-dist/tex/generic/pgf/systemlayer/pgfsys.code.tex
INPUT /home/maximilian/.local/texlive/2018/texmf-dist/tex/generic/pgf/utilities/pgfkeys.code.tex
INPUT /home/maximilian/.local/texlive/2018/texmf-dist/tex/generic/pgf/utilities/pgfkeysfiltered.code.tex
INPUT /home/maximilian/.local/texlive/2018/texmf-dist/tex/generic/pgf/systemlayer/pgf.cfg
INPUT /home/maximilian/.local/texlive/2018/texmf-dist/tex/generic/pgf/systemlayer/pgfsys-pdftex.def
INPUT /home/maximilian/.local/texlive/2018/texmf-dist/tex/generic/pgf/systemlayer/pgfsys-pdftex.def
INPUT /home/maximilian/.local/texlive/2018/texmf-dist/tex/generic/pgf/systemlayer/pgfsys-common-pdf.def
INPUT /home/maximilian/.local/texlive/2018/texmf-dist/tex/generic/pgf/systemlayer/pgfsyssoftpath.code.tex
INPUT /home/maximilian/.local/texlive/2018/texmf-dist/tex/generic/pgf/systemlayer/pgfsyssoftpath.code.tex
INPUT /home/maximilian/.local/texlive/2018/texmf-dist/tex/generic/pgf/systemlayer/pgfsysprotocol.code.tex
INPUT /home/maximilian/.local/texlive/2018/texmf-dist/tex/generic/pgf/systemlayer/pgfsysprotocol.code.tex
INPUT /home/maximilian/.local/texlive/2018/texmf-dist/tex/latex/xcolor/xcolor.sty
INPUT /home/maximilian/.local/texlive/2018/texmf-dist/tex/latex/xcolor/xcolor.sty
INPUT /home/maximilian/.local/texlive/2018/texmf-dist/tex/latex/graphics-cfg/color.cfg
INPUT /home/maximilian/.local/texlive/2018/texmf-dist/tex/latex/graphics-cfg/color.cfg
INPUT /home/maximilian/.local/texlive/2018/texmf-dist/tex/generic/pgf/basiclayer/pgfcore.code.tex
INPUT /home/maximilian/.local/texlive/2018/texmf-dist/tex/generic/pgf/basiclayer/pgfcore.code.tex
INPUT /home/maximilian/.local/texlive/2018/texmf-dist/tex/generic/pgf/math/pgfmath.code.tex
INPUT /home/maximilian/.local/texlive/2018/texmf-dist/tex/generic/pgf/math/pgfmathcalc.code.tex
INPUT /home/maximilian/.local/texlive/2018/texmf-dist/tex/generic/pgf/math/pgfmathutil.code.tex
INPUT /home/maximilian/.local/texlive/2018/texmf-dist/tex/generic/pgf/math/pgfmathparser.code.tex
INPUT /home/maximilian/.local/texlive/2018/texmf-dist/tex/generic/pgf/math/pgfmathfunctions.code.tex
INPUT /home/maximilian/.local/texlive/2018/texmf-dist/tex/generic/pgf/math/pgfmathfunctions.basic.code.tex
INPUT /home/maximilian/.local/texlive/2018/texmf-dist/tex/generic/pgf/math/pgfmathfunctions.trigonometric.code.tex
INPUT /home/maximilian/.local/texlive/2018/texmf-dist/tex/generic/pgf/math/pgfmathfunctions.random.code.tex
INPUT /home/maximilian/.local/texlive/2018/texmf-dist/tex/generic/pgf/math/pgfmathfunctions.comparison.code.tex
INPUT /home/maximilian/.local/texlive/2018/texmf-dist/tex/generic/pgf/math/pgfmathfunctions.base.code.tex
INPUT /home/maximilian/.local/texlive/2018/texmf-dist/tex/generic/pgf/math/pgfmathfunctions.round.code.tex
INPUT /home/maximilian/.local/texlive/2018/texmf-dist/tex/generic/pgf/math/pgfmathfunctions.misc.code.tex
INPUT /home/maximilian/.local/texlive/2018/texmf-dist/tex/generic/pgf/math/pgfmathfunctions.integerarithmetics.code.tex
INPUT /home/maximilian/.local/texlive/2018/texmf-dist/tex/generic/pgf/math/pgfmathfloat.code.tex
INPUT /home/maximilian/.local/texlive/2018/texmf-dist/tex/generic/pgf/basiclayer/pgfcorepoints.code.tex
INPUT /home/maximilian/.local/texlive/2018/texmf-dist/tex/generic/pgf/basiclayer/pgfcorepathconstruct.code.tex
INPUT /home/maximilian/.local/texlive/2018/texmf-dist/tex/generic/pgf/basiclayer/pgfcorepathusage.code.tex
INPUT /home/maximilian/.local/texlive/2018/texmf-dist/tex/generic/pgf/basiclayer/pgfcorescopes.code.tex
INPUT /home/maximilian/.local/texlive/2018/texmf-dist/tex/generic/pgf/basiclayer/pgfcoregraphicstate.code.tex
INPUT /home/maximilian/.local/texlive/2018/texmf-dist/tex/generic/pgf/basiclayer/pgfcoretransformations.code.tex
INPUT /home/maximilian/.local/texlive/2018/texmf-dist/tex/generic/pgf/basiclayer/pgfcorequick.code.tex
INPUT /home/maximilian/.local/texlive/2018/texmf-dist/tex/generic/pgf/basiclayer/pgfcoreobjects.code.tex
INPUT /home/maximilian/.local/texlive/2018/texmf-dist/tex/generic/pgf/basiclayer/pgfcorepathprocessing.code.tex
INPUT /home/maximilian/.local/texlive/2018/texmf-dist/tex/generic/pgf/basiclayer/pgfcorearrows.code.tex
INPUT /home/maximilian/.local/texlive/2018/texmf-dist/tex/generic/pgf/basiclayer/pgfcoreshade.code.tex
INPUT /home/maximilian/.local/texlive/2018/texmf-dist/tex/generic/pgf/basiclayer/pgfcoreimage.code.tex
INPUT /home/maximilian/.local/texlive/2018/texmf-dist/tex/generic/pgf/basiclayer/pgfcoreexternal.code.tex
INPUT /home/maximilian/.local/texlive/2018/texmf-dist/tex/generic/pgf/basiclayer/pgfcorelayers.code.tex
INPUT /home/maximilian/.local/texlive/2018/texmf-dist/tex/generic/pgf/basiclayer/pgfcoretransparency.code.tex
INPUT /home/maximilian/.local/texlive/2018/texmf-dist/tex/generic/pgf/basiclayer/pgfcorepatterns.code.tex
INPUT /home/maximilian/.local/texlive/2018/texmf-dist/tex/generic/pgf/basiclayer/pgfcorerdf.code.tex
INPUT /home/maximilian/.local/texlive/2018/texmf-dist/tex/generic/pgf/modules/pgfmoduleshapes.code.tex
INPUT /home/maximilian/.local/texlive/2018/texmf-dist/tex/generic/pgf/modules/pgfmoduleplot.code.tex
INPUT /home/maximilian/.local/texlive/2018/texmf-dist/tex/latex/pgf/compatibility/pgfcomp-version-0-65.sty
INPUT /home/maximilian/.local/texlive/2018/texmf-dist/tex/latex/pgf/compatibility/pgfcomp-version-0-65.sty
INPUT /home/maximilian/.local/texlive/2018/texmf-dist/tex/latex/pgf/compatibility/pgfcomp-version-1-18.sty
INPUT /home/maximilian/.local/texlive/2018/texmf-dist/tex/latex/pgf/compatibility/pgfcomp-version-1-18.sty
INPUT /home/maximilian/.local/texlive/2018/texmf-dist/tex/latex/pgf/utilities/pgffor.sty
INPUT /home/maximilian/.local/texlive/2018/texmf-dist/tex/latex/pgf/utilities/pgffor.sty
INPUT /home/maximilian/.local/texlive/2018/texmf-dist/tex/latex/pgf/utilities/pgfkeys.sty
INPUT /home/maximilian/.local/texlive/2018/texmf-dist/tex/latex/pgf/utilities/pgfkeys.sty
INPUT /home/maximilian/.local/texlive/2018/texmf-dist/tex/generic/pgf/utilities/pgfkeys.code.tex
INPUT /home/maximilian/.local/texlive/2018/texmf-dist/tex/generic/pgf/utilities/pgfkeys.code.tex
INPUT /home/maximilian/.local/texlive/2018/texmf-dist/tex/latex/pgf/math/pgfmath.sty
INPUT /home/maximilian/.local/texlive/2018/texmf-dist/tex/latex/pgf/math/pgfmath.sty
INPUT /home/maximilian/.local/texlive/2018/texmf-dist/tex/generic/pgf/math/pgfmath.code.tex
INPUT /home/maximilian/.local/texlive/2018/texmf-dist/tex/generic/pgf/math/pgfmath.code.tex
INPUT /home/maximilian/.local/texlive/2018/texmf-dist/tex/generic/pgf/utilities/pgffor.code.tex
INPUT /home/maximilian/.local/texlive/2018/texmf-dist/tex/generic/pgf/utilities/pgffor.code.tex
INPUT /home/maximilian/.local/texlive/2018/texmf-dist/tex/generic/pgf/math/pgfmath.code.tex
INPUT /home/maximilian/.local/texlive/2018/texmf-dist/tex/generic/pgf/frontendlayer/tikz/tikz.code.tex
INPUT /home/maximilian/.local/texlive/2018/texmf-dist/tex/generic/pgf/frontendlayer/tikz/tikz.code.tex
INPUT /home/maximilian/.local/texlive/2018/texmf-dist/tex/generic/pgf/libraries/pgflibraryplothandlers.code.tex
INPUT /home/maximilian/.local/texlive/2018/texmf-dist/tex/generic/pgf/libraries/pgflibraryplothandlers.code.tex
INPUT /home/maximilian/.local/texlive/2018/texmf-dist/tex/generic/pgf/modules/pgfmodulematrix.code.tex
INPUT /home/maximilian/.local/texlive/2018/texmf-dist/tex/generic/pgf/frontendlayer/tikz/libraries/tikzlibrarytopaths.code.tex
INPUT /home/maximilian/.local/texlive/2018/texmf-dist/tex/generic/pgf/frontendlayer/tikz/libraries/tikzlibrarytopaths.code.tex
INPUT build/place_reconstruction.aux
INPUT build/place_reconstruction.aux
OUTPUT build/place_reconstruction.aux
INPUT /home/maximilian/.local/texlive/2018/texmf-dist/tex/context/base/mkii/supp-pdf.mkii
INPUT /home/maximilian/.local/texlive/2018/texmf-dist/tex/context/base/mkii/supp-pdf.mkii
INPUT /home/maximilian/.local/texlive/2018/texmf-dist/tex/latex/oberdiek/epstopdf-base.sty
INPUT /home/maximilian/.local/texlive/2018/texmf-dist/tex/latex/oberdiek/epstopdf-base.sty
INPUT /home/maximilian/.local/texlive/2018/texmf-dist/tex/generic/oberdiek/infwarerr.sty
INPUT /home/maximilian/.local/texlive/2018/texmf-dist/tex/generic/oberdiek/infwarerr.sty
INPUT /home/maximilian/.local/texlive/2018/texmf-dist/tex/latex/oberdiek/grfext.sty
INPUT /home/maximilian/.local/texlive/2018/texmf-dist/tex/latex/oberdiek/grfext.sty
INPUT /home/maximilian/.local/texlive/2018/texmf-dist/tex/generic/oberdiek/kvdefinekeys.sty
INPUT /home/maximilian/.local/texlive/2018/texmf-dist/tex/generic/oberdiek/kvdefinekeys.sty
INPUT /home/maximilian/.local/texlive/2018/texmf-dist/tex/generic/oberdiek/ltxcmds.sty
INPUT /home/maximilian/.local/texlive/2018/texmf-dist/tex/generic/oberdiek/ltxcmds.sty
INPUT /home/maximilian/.local/texlive/2018/texmf-dist/tex/latex/oberdiek/kvoptions.sty
INPUT /home/maximilian/.local/texlive/2018/texmf-dist/tex/latex/oberdiek/kvoptions.sty
INPUT /home/maximilian/.local/texlive/2018/texmf-dist/tex/generic/oberdiek/kvsetkeys.sty
INPUT /home/maximilian/.local/texlive/2018/texmf-dist/tex/generic/oberdiek/kvsetkeys.sty
INPUT /home/maximilian/.local/texlive/2018/texmf-dist/tex/generic/oberdiek/etexcmds.sty
INPUT /home/maximilian/.local/texlive/2018/texmf-dist/tex/generic/oberdiek/etexcmds.sty
INPUT /home/maximilian/.local/texlive/2018/texmf-dist/tex/generic/oberdiek/pdftexcmds.sty
INPUT /home/maximilian/.local/texlive/2018/texmf-dist/tex/generic/oberdiek/pdftexcmds.sty
INPUT /home/maximilian/.local/texlive/2018/texmf-dist/tex/latex/latexconfig/epstopdf-sys.cfg
INPUT /home/maximilian/.local/texlive/2018/texmf-dist/tex/latex/latexconfig/epstopdf-sys.cfg
INPUT /home/maximilian/.local/texlive/2018/texmf-dist/tex/generic/pgf/frontendlayer/tikz/libraries/tikzlibraryquotes.code.tex
INPUT /home/maximilian/.local/texlive/2018/texmf-dist/tex/generic/pgf/frontendlayer/tikz/libraries/tikzlibraryquotes.code.tex
INPUT /home/maximilian/.local/texlive/2018/texmf-dist/tex/generic/pgf/frontendlayer/tikz/libraries/tikzlibraryangles.code.tex
INPUT /home/maximilian/.local/texlive/2018/texmf-dist/tex/generic/pgf/frontendlayer/tikz/libraries/tikzlibraryangles.code.tex
INPUT /home/maximilian/.local/texlive/2018/texmf-dist/tex/generic/pgf/frontendlayer/tikz/libraries/tikzlibraryarrows.code.tex
INPUT /home/maximilian/.local/texlive/2018/texmf-dist/tex/generic/pgf/frontendlayer/tikz/libraries/tikzlibraryarrows.code.tex
INPUT /home/maximilian/.local/texlive/2018/texmf-dist/tex/generic/pgf/libraries/pgflibraryarrows.code.tex
INPUT /home/maximilian/.local/texlive/2018/texmf-dist/tex/generic/pgf/libraries/pgflibraryarrows.code.tex
OUTPUT build/place_reconstruction.pdf
INPUT /home/maximilian/.local/texlive/2018/texmf-var/fonts/map/pdftex/updmap/pdftex.map
INPUT build/place_reconstruction.aux
INPUT /home/maximilian/.local/texlive/2018/texmf-dist/fonts/type1/public/amsfonts/cm/cmmi10.pfb
INPUT /home/maximilian/.local/texlive/2018/texmf-dist/fonts/type1/public/amsfonts/cm/cmr10.pfb
INPUT /home/maximilian/.local/texlive/2018/texmf-dist/fonts/type1/public/amsfonts/cm/cmr7.pfb
