#x       y        w        h        dx dy
0.045734 0.406231 0.050094 0.078441 -3 5.2
0.187166 0.401944 0.054271 0.093607 -2 5.2
-1       -1       -1       -1       -1 -1
0.339962 0.395741 0.040612 0.071230 -1 5.2
0.503435 0.391825 0.046064 0.081968  0 5.2
0.665729 0.391328 0.053785 0.096485  1 5.2
0.973765 0.386758 0.046463 0.088359  3 5.2
0.820009 0.388957 0.054623 0.094145  2 5.2
-1       -1       -1       -1       -1 -1
0.891410 0.453275 0.062107 0.101850  2 4.2
-1       -1       -1       -1       -1 -1
-1       -1       -1       -1       -1 -1
0.502650 0.452517 0.061372 0.095879  0 4.2
0.303684 0.460966 0.061711 0.108401 -1 4.2
0.705406 0.455670 0.064139 0.111685  1 4.2
0.124570 0.470888 0.060518 0.106351 -2 4.2
-1       -1       -1       -1       -1 -1
-1       -1       -1       -1       -1 -1
0.029521 0.569301 0.058325 0.125389 -2 3.2
-1       -1       -1       -1       -1 -1
-1       -1       -1       -1       -1 -1
0.503304 0.554179 0.064627 0.123897  0 3.2
0.755748 0.553878 0.082094 0.137941  1 3.2
0.249349 0.567875 0.077759 0.146869 -1 3.2
0.984930 0.548937 0.044333 0.128475  2 3.2
-1       -1       -1       -1       -1 -1
-1       -1       -1       -1       -1 -1
0.497659 0.747516 0.102182 0.171901  0 2.2
0.852725 0.741404 0.114619 0.203652  1 2.2
0.148000 0.748039 0.095909 0.190490 -1 2.2
0.234562 0.360186 0.042490 0.073730 -2 6.2
0.117620 0.361140 0.046852 0.082651 -3 6.2
-1       -1       -1       -1       -1 -1
0.638995 0.348699 0.035283 0.071322  1 6.2
0.362131 0.348513 0.037806 0.072507 -1 6.2
0.497733 0.347706 0.042417 0.082061  0 6.2
0.773712 0.345256 0.039751 0.073018  2 6.2
0.908431 0.342531 0.042288 0.077375  3 6.2
-1       -1       -1       -1       -1 -1
0.734393 0.316186 0.041673 0.062693  2 7.2
0.969833 0.308229 0.037362 0.059071  4 7.2
0.852050 0.309734 0.035453 0.054677  3 7.2
0.618606 0.315283 0.031731 0.058664  1 7.2
0.498387 0.312617 0.032232 0.069779  0 7.2
0.381734 0.318756 0.031583 0.067839 -1 7.2
0.159989 0.328502 0.033498 0.052347 -3 7.2
0.052254 0.330848 0.032952 0.064485 -4 7.2
0.267688 0.320616 0.029505 0.056146 -2 7.2
0.196677 0.304950 0.030545 0.051921 -3 8.2
0.102018 0.305223 0.028356 0.056624 -4 8.2
0.296612 0.297061 0.027024 0.053388 -2 8.2
0.603980 0.284775 0.027980 0.051991  1 8.2
0.498825 0.288681 0.029811 0.057751  0 8.2
0.395528 0.295992 0.029109 0.058107 -1 8.2
0.708184 0.285526 0.031679 0.047094  2 8.2
0.809787 0.288528 0.032220 0.048540  3 8.2
0.913333 0.287427 0.034138 0.050237  4 8.2
0.685653 0.272790 0.026714 0.044505  2 9.2
0.777586 0.267461 0.028617 0.040553  3 9.2
0.865116 0.265906 0.031665 0.044552  4 9.2
0.592268 0.272355 0.025960 0.048993  1 9.2
0.408295 0.274173 0.025922 0.053861  0 9.2
0.497226 0.273404 0.027072 0.050751 -1 9.2
0.228555 0.280512 0.026179 0.043529 -3 9.2
0.315700 0.279463 0.027916 0.053410 -2 9.2
0.138581 0.286766 0.027930 0.044310 -4 9.2
0.252394 0.265549 0.022694 0.034240 -3 10.2
0.335403 0.259834 0.024010 0.041401 -2 10.2
0.173052 0.271119 0.023992 0.035114 -4 10.2
0.412191 0.259478 0.024054 0.038419 -1 10.2
0.498471 0.255893 0.028167 0.043774  0 10.2
0.585499 0.254197 0.026219 0.046801  1 10.2
0.831439 0.253561 0.027516 0.039271  4 10.2
0.750507 0.255828 0.028831 0.042731  3 10.2
0.667513 0.258703 0.028484 0.043719  2 10.2
0.803349 0.238524 0.022245 0.033669  4 11.2
0.729461 0.240113 0.025346 0.036544  3 11.2
0.651657 0.242939 0.025126 0.039219  2 11.2
0.498333 0.244870 0.021990 0.035991  0 11.2
0.422158 0.248036 0.023475 0.041740 -1 11.2
0.574325 0.242742 0.025584 0.040206  1 11.2
0.203693 0.257431 0.024624 0.031518 -4 11.2
0.348805 0.250522 0.025475 0.042835 -2 11.2
0.276624 0.246308 0.021700 0.037115 -3 11.2
0.223487 0.246627 0.025533 0.035024 -4 12.2
0.359164 0.238700 0.025351 0.043925 -2 12.2
0.290838 0.242905 0.024596 0.041884 -3 12.2
0.571093 0.229794 0.020469 0.034415  1 12.2
0.427291 0.234995 0.024001 0.042423 -1 12.2
0.497701 0.235290 0.023033 0.036701  0 12.2
0.639257 0.230110 0.021672 0.029774  2 12.2
0.779317 0.229105 0.026270 0.039922  4 12.2
0.710925 0.232185 0.026346 0.041391  3 12.2
0.627536 0.221806 0.022110 0.028634  2 13.2
0.757987 0.218938 0.022333 0.036149  4 13.2
0.694578 0.219315 0.022242 0.032736  3 13.2
0.433712 0.226417 0.021154 0.035316 -1 13.2
0.562994 0.220513 0.021670 0.035681  1 13.2
0.496579 0.227436 0.019189 0.033032  0 13.2
0.250035 0.238203 0.020720 0.027843 -4 13.2
0.369819 0.227693 0.022620 0.038101 -2 13.2
0.308985 0.231008 0.020028 0.033068 -3 13.2
0.262833 0.227802 0.024199 0.032575 -4 14.2
0.377913 0.220731 0.023326 0.035299 -2 14.2
0.321610 0.225224 0.022698 0.032739 -3 14.2
0.558357 0.215878 0.018206 0.032639  1 14.2
0.498532 0.216004 0.020847 0.033331  0 14.2
0.438569 0.217747 0.019798 0.034531 -1 14.2
0.740871 0.214526 0.021451 0.030053 -4 14.2
0.680051 0.213307 0.019331 0.031166 -3 14.2
0.618988 0.215443 0.018761 0.033671 -2 14.2
