solid OpenSCAD_Model
  facet normal 0 0 -1
    outer loop
      vertex -0.25 3.6 -5
      vertex -1.04999 3.6 -5
      vertex -0.25 4.39999 -5
    endloop
  endfacet
  facet normal 0 0 -1
    outer loop
      vertex 2.5 -5 -5
      vertex 1.6 -4.39999 -5
      vertex 2.39999 -3.6 -5
    endloop
  endfacet
  facet normal 0 0 -1
    outer loop
      vertex 2.5 -5 -5
      vertex 1.59999 -4.39999 -5
      vertex 1.6 -4.39999 -5
    endloop
  endfacet
  facet normal 0 0 -1
    outer loop
      vertex 1.59999 -4.39999 -5
      vertex -0.249985 -4.39999 -5
      vertex 1.59999 -3.59999 -5
    endloop
  endfacet
  facet normal 0 0 -1
    outer loop
      vertex 2.5 -5 -5
      vertex -0.249985 -4.39999 -5
      vertex 1.59999 -4.39999 -5
    endloop
  endfacet
  facet normal 0 0 -1
    outer loop
      vertex -2.5 -5 -5
      vertex -0.249985 -4.39999 -5
      vertex 2.5 -5 -5
    endloop
  endfacet
  facet normal 0 0 -1
    outer loop
      vertex -0.25 -4.39999 -5
      vertex -1.04999 -3.6 -5
      vertex -0.25 -3.6 -5
    endloop
  endfacet
  facet normal 0 0 -1
    outer loop
      vertex -2.5 -5 -5
      vertex -1.04999 -3.59999 -5
      vertex -1.04999 -3.6 -5
    endloop
  endfacet
  facet normal -0 0 -1
    outer loop
      vertex -1.04999 -3.59999 -5
      vertex -2.5 -5 -5
      vertex -1.04999 3.59999 -5
    endloop
  endfacet
  facet normal 0 0 -1
    outer loop
      vertex -2.5 5 -5
      vertex -1.04999 3.59999 -5
      vertex -2.5 -5 -5
    endloop
  endfacet
  facet normal -0 0 -1
    outer loop
      vertex -0.25 -4.39999 -5
      vertex -2.5 -5 -5
      vertex -1.04999 -3.6 -5
    endloop
  endfacet
  facet normal -0 0 -1
    outer loop
      vertex -0.249985 -4.39999 -5
      vertex -2.5 -5 -5
      vertex -0.25 -4.39999 -5
    endloop
  endfacet
  facet normal 0 0 -1
    outer loop
      vertex 6.79999 -0.399994 -5
      vertex 7.5 0 -5
      vertex 7.11938 -1.91341 -5
    endloop
  endfacet
  facet normal 0 0 -1
    outer loop
      vertex 6.79999 0.399994 -5
      vertex 7.5 0 -5
      vertex 6.79999 -0.399994 -5
    endloop
  endfacet
  facet normal 0 0 -1
    outer loop
      vertex 5.23543 -1.13304 -5
      vertex 7.11938 -1.91341 -5
      vertex 6.03552 -3.53552 -5
    endloop
  endfacet
  facet normal 0 -0 -1
    outer loop
      vertex 6 -0.399994 -5
      vertex 7.11938 -1.91341 -5
      vertex 5.23543 -1.13304 -5
    endloop
  endfacet
  facet normal 0 0 -1
    outer loop
      vertex 6 -0.399994 -5
      vertex 5.46082 0 -5
      vertex 6 0.399994 -5
    endloop
  endfacet
  facet normal 0 0 -1
    outer loop
      vertex 7.11938 -1.91341 -5
      vertex 6 -0.399994 -5
      vertex 6.79999 -0.399994 -5
    endloop
  endfacet
  facet normal -0 0 -1
    outer loop
      vertex 6 -0.399994 -5
      vertex 5.23543 -1.13304 -5
      vertex 5.46082 0 -5
    endloop
  endfacet
  facet normal 0 0 -1
    outer loop
      vertex 6.03552 -3.53552 -5
      vertex 4.5936 -2.0936 -5
      vertex 5.23543 -1.13304 -5
    endloop
  endfacet
  facet normal 0 0 -1
    outer loop
      vertex 4.41341 -4.61938 -5
      vertex 4.5936 -2.0936 -5
      vertex 6.03552 -3.53552 -5
    endloop
  endfacet
  facet normal 0 0 -1
    outer loop
      vertex 4.41341 -4.61938 -5
      vertex 3.63304 -2.73543 -5
      vertex 4.5936 -2.0936 -5
    endloop
  endfacet
  facet normal 0 0 -1
    outer loop
      vertex 2.39999 -3.6 -5
      vertex 4.41341 -4.61938 -5
      vertex 2.5 -5 -5
    endloop
  endfacet
  facet normal 0 0 -1
    outer loop
      vertex 4.41341 -4.61938 -5
      vertex 2.39999 -3.6 -5
      vertex 3.63304 -2.73543 -5
    endloop
  endfacet
  facet normal 0 0 -1
    outer loop
      vertex 2.39999 -3.59999 -5
      vertex 3.63304 -2.73543 -5
      vertex 2.39999 -3.6 -5
    endloop
  endfacet
  facet normal 0 0 -1
    outer loop
      vertex 2.39999 -3.59999 -5
      vertex 2.30302 -3 -5
      vertex 3.63304 -2.73543 -5
    endloop
  endfacet
  facet normal 0 0 -1
    outer loop
      vertex 1.59999 -3.59999 -5
      vertex 2.30302 -3 -5
      vertex 2.39999 -3.59999 -5
    endloop
  endfacet
  facet normal 0 0 -1
    outer loop
      vertex -0.249985 -3.59999 -5
      vertex 1.59999 -3.59999 -5
      vertex -0.249985 -4.39999 -5
    endloop
  endfacet
  facet normal 0 0 -1
    outer loop
      vertex -0.5 -3 -5
      vertex 1.59999 -3.59999 -5
      vertex -0.249985 -3.59999 -5
    endloop
  endfacet
  facet normal 0 0 -1
    outer loop
      vertex 1.59999 -3.59999 -5
      vertex -0.5 -3 -5
      vertex 2.30302 -3 -5
    endloop
  endfacet
  facet normal -0 0 -1
    outer loop
      vertex -0.5 -3 -5
      vertex -1.04999 -3.59999 -5
      vertex -0.5 3 -5
    endloop
  endfacet
  facet normal 0 0 -1
    outer loop
      vertex -1.04999 -3.59999 -5
      vertex -0.5 -3 -5
      vertex -0.249985 -3.59999 -5
    endloop
  endfacet
  facet normal 0 0 -1
    outer loop
      vertex 7.5 0 -5
      vertex 6.79999 0.399994 -5
      vertex 7.11938 1.91341 -5
    endloop
  endfacet
  facet normal 0 0 -1
    outer loop
      vertex 6 0.399994 -5
      vertex 7.11938 1.91341 -5
      vertex 6.79999 0.399994 -5
    endloop
  endfacet
  facet normal 0 0 -1
    outer loop
      vertex 7.11938 1.91341 -5
      vertex 6 0.399994 -5
      vertex 5.23543 1.13304 -5
    endloop
  endfacet
  facet normal 0 0 -1
    outer loop
      vertex 5.23543 1.13304 -5
      vertex 6 0.399994 -5
      vertex 5.46082 0 -5
    endloop
  endfacet
  facet normal -0 0 -1
    outer loop
      vertex 7.11938 1.91341 -5
      vertex 5.23543 1.13304 -5
      vertex 6.03552 3.53552 -5
    endloop
  endfacet
  facet normal 0 0 -1
    outer loop
      vertex 4.5936 2.0936 -5
      vertex 6.03552 3.53552 -5
      vertex 5.23543 1.13304 -5
    endloop
  endfacet
  facet normal 0 0 -1
    outer loop
      vertex 4.5936 2.0936 -5
      vertex 4.41341 4.61938 -5
      vertex 6.03552 3.53552 -5
    endloop
  endfacet
  facet normal 0 0 -1
    outer loop
      vertex 3.63304 2.73543 -5
      vertex 4.41341 4.61938 -5
      vertex 4.5936 2.0936 -5
    endloop
  endfacet
  facet normal 0 0 -1
    outer loop
      vertex 2.39999 3.6 -5
      vertex 4.41341 4.61938 -5
      vertex 3.63304 2.73543 -5
    endloop
  endfacet
  facet normal 0 0 -1
    outer loop
      vertex 2.39999 3.6 -5
      vertex 3.63304 2.73543 -5
      vertex 2.39999 3.59999 -5
    endloop
  endfacet
  facet normal 0 0 -1
    outer loop
      vertex 2.30302 3 -5
      vertex 2.39999 3.59999 -5
      vertex 3.63304 2.73543 -5
    endloop
  endfacet
  facet normal 0 0 -1
    outer loop
      vertex 2.30302 3 -5
      vertex 1.59999 3.59999 -5
      vertex 2.39999 3.59999 -5
    endloop
  endfacet
  facet normal 0 0 -1
    outer loop
      vertex 1.59999 3.59999 -5
      vertex -0.249985 3.59999 -5
      vertex 1.59999 4.39999 -5
    endloop
  endfacet
  facet normal 0 0 -1
    outer loop
      vertex -0.5 3 -5
      vertex 1.59999 3.59999 -5
      vertex 2.30302 3 -5
    endloop
  endfacet
  facet normal -0 0 -1
    outer loop
      vertex 1.59999 3.59999 -5
      vertex -0.5 3 -5
      vertex -0.249985 3.59999 -5
    endloop
  endfacet
  facet normal 0 0 -1
    outer loop
      vertex -0.5 3 -5
      vertex -1.04999 3.59999 -5
      vertex -0.249985 3.59999 -5
    endloop
  endfacet
  facet normal 0 0 -1
    outer loop
      vertex -1.04999 3.59999 -5
      vertex -0.5 3 -5
      vertex -1.04999 -3.59999 -5
    endloop
  endfacet
  facet normal -0 0 -1
    outer loop
      vertex 4.41341 4.61938 -5
      vertex 2.39999 3.6 -5
      vertex 2.5 5 -5
    endloop
  endfacet
  facet normal 0 0 -1
    outer loop
      vertex 1.6 4.39999 -5
      vertex 2.39999 3.6 -5
      vertex 1.6 3.6 -5
    endloop
  endfacet
  facet normal 0 0 -1
    outer loop
      vertex 2.39999 3.6 -5
      vertex 1.6 4.39999 -5
      vertex 2.5 5 -5
    endloop
  endfacet
  facet normal 0 0 -1
    outer loop
      vertex 1.59999 4.39999 -5
      vertex 2.5 5 -5
      vertex 1.6 4.39999 -5
    endloop
  endfacet
  facet normal 0 0 -1
    outer loop
      vertex -0.249985 4.39999 -5
      vertex 1.59999 4.39999 -5
      vertex -0.249985 3.59999 -5
    endloop
  endfacet
  facet normal 0 0 -1
    outer loop
      vertex 1.59999 4.39999 -5
      vertex -0.249985 4.39999 -5
      vertex 2.5 5 -5
    endloop
  endfacet
  facet normal 0 0 -1
    outer loop
      vertex -2.5 5 -5
      vertex -0.249985 4.39999 -5
      vertex -0.25 4.39999 -5
    endloop
  endfacet
  facet normal 0 0 -1
    outer loop
      vertex -0.249985 4.39999 -5
      vertex -2.5 5 -5
      vertex 2.5 5 -5
    endloop
  endfacet
  facet normal 0 0 -1
    outer loop
      vertex -1.04999 3.6 -5
      vertex -2.5 5 -5
      vertex -0.25 4.39999 -5
    endloop
  endfacet
  facet normal 0 0 -1
    outer loop
      vertex -1.04999 3.59999 -5
      vertex -2.5 5 -5
      vertex -1.04999 3.6 -5
    endloop
  endfacet
  facet normal -0 0 -1
    outer loop
      vertex 2.39999 -3.6 -5
      vertex 1.6 -4.39999 -5
      vertex 1.6 -3.6 -5
    endloop
  endfacet
  facet normal -0 0 1
    outer loop
      vertex -1.05 3.6 -4
      vertex -1.04999 3.59999 -4
      vertex -1.04999 3.6 -4
    endloop
  endfacet
  facet normal 0 0 1
    outer loop
      vertex -1.04999 3.59999 -4
      vertex -1.05 3.6 -4
      vertex -1.04999 -3.59999 -4
    endloop
  endfacet
  facet normal 0 0 1
    outer loop
      vertex -1.05 -3.6 -4
      vertex -1.04999 -3.59999 -4
      vertex -1.05 3.6 -4
    endloop
  endfacet
  facet normal 0 0 1
    outer loop
      vertex -1.04999 -3.59999 -4
      vertex -1.05 -3.6 -4
      vertex -1.04999 -3.6 -4
    endloop
  endfacet
  facet normal 0 0 1
    outer loop
      vertex 1.6 -4.39999 -4
      vertex 1.59999 -4.39999 -4
      vertex 1.6 -4.4 -4
    endloop
  endfacet
  facet normal 0 0 1
    outer loop
      vertex 2.5 5 -4
      vertex 1.6 4.4 -4
      vertex 2.4 4.4 -4
    endloop
  endfacet
  facet normal 0 0 1
    outer loop
      vertex 1.6 4.4 -4
      vertex 1.59999 4.39999 -4
      vertex 1.6 4.39999 -4
    endloop
  endfacet
  facet normal 0 0 1
    outer loop
      vertex -0.249985 4.39999 -4
      vertex 1.6 4.4 -4
      vertex 2.5 5 -4
    endloop
  endfacet
  facet normal 0 0 1
    outer loop
      vertex 1.59999 4.39999 -4
      vertex -0.249985 4.39999 -4
      vertex 1.59999 3.59999 -4
    endloop
  endfacet
  facet normal 0 0 1
    outer loop
      vertex 1.6 4.4 -4
      vertex -0.249985 4.39999 -4
      vertex 1.59999 4.39999 -4
    endloop
  endfacet
  facet normal 0 0 1
    outer loop
      vertex 2.5 5 -4
      vertex -0.25 4.4 -4
      vertex -0.249985 4.39999 -4
    endloop
  endfacet
  facet normal -0 0 1
    outer loop
      vertex -2.5 5 -4
      vertex -0.25 4.4 -4
      vertex 2.5 5 -4
    endloop
  endfacet
  facet normal 0 0 1
    outer loop
      vertex -2.5 5 -4
      vertex -1.05 3.6 -4
      vertex -1.05 4.4 -4
    endloop
  endfacet
  facet normal 0 0 1
    outer loop
      vertex -1.05 3.6 -4
      vertex -2.5 5 -4
      vertex -1.05 -3.6 -4
    endloop
  endfacet
  facet normal 0 0 1
    outer loop
      vertex -2.5 -5 -4
      vertex -1.05 -3.6 -4
      vertex -2.5 5 -4
    endloop
  endfacet
  facet normal 0 0 1
    outer loop
      vertex -0.25 4.4 -4
      vertex -2.5 5 -4
      vertex -1.05 4.4 -4
    endloop
  endfacet
  facet normal -0 0 1
    outer loop
      vertex 6.79999 0.399994 -4
      vertex 7.5 0 -4
      vertex 7.11938 1.91341 -4
    endloop
  endfacet
  facet normal 0 0 1
    outer loop
      vertex 6.79999 -0.399994 -4
      vertex 7.5 0 -4
      vertex 6.79999 0.399994 -4
    endloop
  endfacet
  facet normal 0 0 1
    outer loop
      vertex 5.23543 1.13304 -4
      vertex 7.11938 1.91341 -4
      vertex 6.03552 3.53552 -4
    endloop
  endfacet
  facet normal 0 -0 1
    outer loop
      vertex 6 0.399994 -4
      vertex 7.11938 1.91341 -4
      vertex 5.23543 1.13304 -4
    endloop
  endfacet
  facet normal 0 0 1
    outer loop
      vertex 6 0.399994 -4
      vertex 5.46082 0 -4
      vertex 6 -0.399994 -4
    endloop
  endfacet
  facet normal 0 0 1
    outer loop
      vertex 7.11938 1.91341 -4
      vertex 6 0.399994 -4
      vertex 6.79999 0.399994 -4
    endloop
  endfacet
  facet normal 0 0 1
    outer loop
      vertex 6 0.399994 -4
      vertex 5.23543 1.13304 -4
      vertex 5.46082 0 -4
    endloop
  endfacet
  facet normal 0 0 1
    outer loop
      vertex 6.03552 3.53552 -4
      vertex 4.5936 2.0936 -4
      vertex 5.23543 1.13304 -4
    endloop
  endfacet
  facet normal 0 0 1
    outer loop
      vertex 4.41341 4.61938 -4
      vertex 4.5936 2.0936 -4
      vertex 6.03552 3.53552 -4
    endloop
  endfacet
  facet normal 0 0 1
    outer loop
      vertex 4.41341 4.61938 -4
      vertex 3.63304 2.73543 -4
      vertex 4.5936 2.0936 -4
    endloop
  endfacet
  facet normal 0 0 1
    outer loop
      vertex 2.4 4.4 -4
      vertex 4.41341 4.61938 -4
      vertex 2.5 5 -4
    endloop
  endfacet
  facet normal 0 0 1
    outer loop
      vertex 2.4 3.6 -4
      vertex 4.41341 4.61938 -4
      vertex 2.4 4.4 -4
    endloop
  endfacet
  facet normal 0 0 1
    outer loop
      vertex 4.41341 4.61938 -4
      vertex 2.4 3.6 -4
      vertex 3.63304 2.73543 -4
    endloop
  endfacet
  facet normal 0 0 1
    outer loop
      vertex 2.39999 3.59999 -4
      vertex 2.4 3.6 -4
      vertex 2.39999 3.6 -4
    endloop
  endfacet
  facet normal 0 0 1
    outer loop
      vertex 2.30302 3 -4
      vertex 2.4 3.6 -4
      vertex 2.39999 3.59999 -4
    endloop
  endfacet
  facet normal 0 0 1
    outer loop
      vertex 2.4 3.6 -4
      vertex 2.30302 3 -4
      vertex 3.63304 2.73543 -4
    endloop
  endfacet
  facet normal -0 0 1
    outer loop
      vertex 1.59999 3.59999 -4
      vertex 2.30302 3 -4
      vertex 2.39999 3.59999 -4
    endloop
  endfacet
  facet normal 0 0 1
    outer loop
      vertex -0.249985 3.59999 -4
      vertex 1.59999 3.59999 -4
      vertex -0.249985 4.39999 -4
    endloop
  endfacet
  facet normal 0 0 1
    outer loop
      vertex -0.5 3 -4
      vertex 1.59999 3.59999 -4
      vertex -0.249985 3.59999 -4
    endloop
  endfacet
  facet normal 0 0 1
    outer loop
      vertex 1.59999 3.59999 -4
      vertex -0.5 3 -4
      vertex 2.30302 3 -4
    endloop
  endfacet
  facet normal 0 0 1
    outer loop
      vertex -0.5 3 -4
      vertex -1.04999 3.59999 -4
      vertex -0.5 -3 -4
    endloop
  endfacet
  facet normal -0 0 1
    outer loop
      vertex -1.04999 3.59999 -4
      vertex -0.5 3 -4
      vertex -0.249985 3.59999 -4
    endloop
  endfacet
  facet normal 0 0 1
    outer loop
      vertex 7.5 0 -4
      vertex 6.79999 -0.399994 -4
      vertex 7.11938 -1.91341 -4
    endloop
  endfacet
  facet normal -0 0 1
    outer loop
      vertex 6 -0.399994 -4
      vertex 7.11938 -1.91341 -4
      vertex 6.79999 -0.399994 -4
    endloop
  endfacet
  facet normal 0 0 1
    outer loop
      vertex 7.11938 -1.91341 -4
      vertex 6 -0.399994 -4
      vertex 5.23543 -1.13304 -4
    endloop
  endfacet
  facet normal 0 0 1
    outer loop
      vertex 5.23543 -1.13304 -4
      vertex 6 -0.399994 -4
      vertex 5.46082 0 -4
    endloop
  endfacet
  facet normal 0 0 1
    outer loop
      vertex 7.11938 -1.91341 -4
      vertex 5.23543 -1.13304 -4
      vertex 6.03552 -3.53552 -4
    endloop
  endfacet
  facet normal -0 0 1
    outer loop
      vertex 4.5936 -2.0936 -4
      vertex 6.03552 -3.53552 -4
      vertex 5.23543 -1.13304 -4
    endloop
  endfacet
  facet normal 0 0 1
    outer loop
      vertex 4.5936 -2.0936 -4
      vertex 4.41341 -4.61938 -4
      vertex 6.03552 -3.53552 -4
    endloop
  endfacet
  facet normal -0 0 1
    outer loop
      vertex 3.63304 -2.73543 -4
      vertex 4.41341 -4.61938 -4
      vertex 4.5936 -2.0936 -4
    endloop
  endfacet
  facet normal -0 0 1
    outer loop
      vertex 2.4 -3.6 -4
      vertex 4.41341 -4.61938 -4
      vertex 3.63304 -2.73543 -4
    endloop
  endfacet
  facet normal 0 0 1
    outer loop
      vertex 4.41341 -4.61938 -4
      vertex 2.4 -3.6 -4
      vertex 2.4 -4.4 -4
    endloop
  endfacet
  facet normal -0 0 1
    outer loop
      vertex 2.30302 -3 -4
      vertex 2.4 -3.6 -4
      vertex 3.63304 -2.73543 -4
    endloop
  endfacet
  facet normal 0 0 1
    outer loop
      vertex 2.4 -3.6 -4
      vertex 2.30302 -3 -4
      vertex 2.39999 -3.59999 -4
    endloop
  endfacet
  facet normal 0 0 1
    outer loop
      vertex 2.30302 -3 -4
      vertex 1.59999 -3.59999 -4
      vertex 2.39999 -3.59999 -4
    endloop
  endfacet
  facet normal 0 0 1
    outer loop
      vertex 1.59999 -3.59999 -4
      vertex -0.249985 -3.59999 -4
      vertex 1.59999 -4.39999 -4
    endloop
  endfacet
  facet normal -0 0 1
    outer loop
      vertex -0.5 -3 -4
      vertex 1.59999 -3.59999 -4
      vertex 2.30302 -3 -4
    endloop
  endfacet
  facet normal 0 0 1
    outer loop
      vertex 1.59999 -3.59999 -4
      vertex -0.5 -3 -4
      vertex -0.249985 -3.59999 -4
    endloop
  endfacet
  facet normal 0 0 1
    outer loop
      vertex -0.5 -3 -4
      vertex -1.04999 -3.59999 -4
      vertex -0.249985 -3.59999 -4
    endloop
  endfacet
  facet normal 0 0 1
    outer loop
      vertex -1.04999 -3.59999 -4
      vertex -0.5 -3 -4
      vertex -1.04999 3.59999 -4
    endloop
  endfacet
  facet normal 0 0 1
    outer loop
      vertex 4.41341 -4.61938 -4
      vertex 2.4 -4.4 -4
      vertex 2.5 -5 -4
    endloop
  endfacet
  facet normal -0 0 1
    outer loop
      vertex 1.6 -4.4 -4
      vertex 2.5 -5 -4
      vertex 2.4 -4.4 -4
    endloop
  endfacet
  facet normal -0 0 1
    outer loop
      vertex -0.249985 -4.39999 -4
      vertex 1.6 -4.4 -4
      vertex 1.59999 -4.39999 -4
    endloop
  endfacet
  facet normal 0 0 1
    outer loop
      vertex -0.249985 -4.39999 -4
      vertex 1.59999 -4.39999 -4
      vertex -0.249985 -3.59999 -4
    endloop
  endfacet
  facet normal 0 0 1
    outer loop
      vertex 1.6 -4.4 -4
      vertex -0.249985 -4.39999 -4
      vertex 2.5 -5 -4
    endloop
  endfacet
  facet normal 0 0 1
    outer loop
      vertex -0.25 -4.4 -4
      vertex -0.249985 -4.39999 -4
      vertex -0.25 -4.39999 -4
    endloop
  endfacet
  facet normal 0 0 1
    outer loop
      vertex -0.249985 -4.39999 -4
      vertex -0.25 -4.4 -4
      vertex 2.5 -5 -4
    endloop
  endfacet
  facet normal 0 0 1
    outer loop
      vertex -2.5 -5 -4
      vertex -0.25 -4.4 -4
      vertex -1.05 -4.4 -4
    endloop
  endfacet
  facet normal 0 0 1
    outer loop
      vertex -0.25 -4.4 -4
      vertex -2.5 -5 -4
      vertex 2.5 -5 -4
    endloop
  endfacet
  facet normal 0 0 1
    outer loop
      vertex -1.05 -3.6 -4
      vertex -2.5 -5 -4
      vertex -1.05 -4.4 -4
    endloop
  endfacet
  facet normal 0 0 1
    outer loop
      vertex 2.4 -3.6 -4
      vertex 2.39999 -3.59999 -4
      vertex 2.39999 -3.6 -4
    endloop
  endfacet
  facet normal 0 0 1
    outer loop
      vertex -0.249985 4.39999 -4
      vertex -0.25 4.4 -4
      vertex -0.25 4.39999 -4
    endloop
  endfacet
  facet normal 0.55557 -0.831469 0
    outer loop
      vertex 4.41341 -4.61938 -5
      vertex 6.03552 -3.53552 -4
      vertex 4.41341 -4.61938 -4
    endloop
  endfacet
  facet normal 0.55557 -0.831469 0
    outer loop
      vertex 6.03552 -3.53552 -4
      vertex 4.41341 -4.61938 -5
      vertex 6.03552 -3.53552 -5
    endloop
  endfacet
  facet normal 0.831469 -0.55557 0
    outer loop
      vertex 6.03552 -3.53552 -4
      vertex 7.11938 -1.91341 -5
      vertex 7.11938 -1.91341 -4
    endloop
  endfacet
  facet normal 0.831469 -0.55557 0
    outer loop
      vertex 7.11938 -1.91341 -5
      vertex 6.03552 -3.53552 -4
      vertex 6.03552 -3.53552 -5
    endloop
  endfacet
  facet normal 0.980791 -0.195062 0
    outer loop
      vertex 7.5 0 -4
      vertex 7.47662 -0.117557 -4.3382
      vertex 7.5 0 -4.3382
    endloop
  endfacet
  facet normal 0.980782 -0.195108 -3.01961e-05
    outer loop
      vertex 7.47662 -0.117557 -4.3382
      vertex 7.11938 -1.91341 -4
      vertex 7.46216 -0.190211 -4.5618
    endloop
  endfacet
  facet normal 0.980783 -0.1951 1.36702e-05
    outer loop
      vertex 7.11938 -1.91341 -4
      vertex 7.47662 -0.117557 -4.3382
      vertex 7.5 0 -4
    endloop
  endfacet
  facet normal 0.980781 -0.195114 0
    outer loop
      vertex 7.46216 -0.190211 -4.5618
      vertex 7.5 0 -5
      vertex 7.5 0 -4.7
    endloop
  endfacet
  facet normal 0.980784 -0.195098 0
    outer loop
      vertex 7.11938 -1.91341 -5
      vertex 7.46216 -0.190211 -4.5618
      vertex 7.11938 -1.91341 -4
    endloop
  endfacet
  facet normal 0.980783 -0.1951 6.22725e-06
    outer loop
      vertex 7.46216 -0.190211 -4.5618
      vertex 7.11938 -1.91341 -5
      vertex 7.5 0 -5
    endloop
  endfacet
  facet normal 0.980784 0.195098 0
    outer loop
      vertex 7.11938 1.91341 -4
      vertex 7.46216 0.190211 -4.5618
      vertex 7.11938 1.91341 -5
    endloop
  endfacet
  facet normal 0.980782 0.195108 -3.01961e-05
    outer loop
      vertex 7.11938 1.91341 -4
      vertex 7.47662 0.117557 -4.3382
      vertex 7.46216 0.190211 -4.5618
    endloop
  endfacet
  facet normal 0.980783 0.1951 1.36702e-05
    outer loop
      vertex 7.5 0 -4
      vertex 7.47662 0.117557 -4.3382
      vertex 7.11938 1.91341 -4
    endloop
  endfacet
  facet normal 0.980791 0.195062 0
    outer loop
      vertex 7.47662 0.117557 -4.3382
      vertex 7.5 0 -4
      vertex 7.5 0 -4.3382
    endloop
  endfacet
  facet normal 0.980781 0.195114 -0
    outer loop
      vertex 7.5 0 -5
      vertex 7.46216 0.190211 -4.5618
      vertex 7.5 0 -4.7
    endloop
  endfacet
  facet normal 0.980783 0.1951 6.22725e-06
    outer loop
      vertex 7.46216 0.190211 -4.5618
      vertex 7.5 0 -5
      vertex 7.11938 1.91341 -5
    endloop
  endfacet
  facet normal 0.831469 0.55557 0
    outer loop
      vertex 7.11938 1.91341 -4
      vertex 6.03552 3.53552 -5
      vertex 6.03552 3.53552 -4
    endloop
  endfacet
  facet normal 0.831469 0.55557 0
    outer loop
      vertex 6.03552 3.53552 -5
      vertex 7.11938 1.91341 -4
      vertex 7.11938 1.91341 -5
    endloop
  endfacet
  facet normal 0.55557 0.831469 -0
    outer loop
      vertex 6.03552 3.53552 -5
      vertex 4.41341 4.61938 -4
      vertex 6.03552 3.53552 -4
    endloop
  endfacet
  facet normal 0.55557 0.831469 0
    outer loop
      vertex 4.41341 4.61938 -4
      vertex 6.03552 3.53552 -5
      vertex 4.41341 4.61938 -5
    endloop
  endfacet
  facet normal 0.1951 0.980783 -0
    outer loop
      vertex 4.41341 4.61938 -5
      vertex 2.5 5 -4
      vertex 4.41341 4.61938 -4
    endloop
  endfacet
  facet normal 0.1951 0.980783 0
    outer loop
      vertex 2.5 5 -4
      vertex 4.41341 4.61938 -5
      vertex 2.5 5 -5
    endloop
  endfacet
  facet normal 0 1 -0
    outer loop
      vertex 2.5 5 -5
      vertex -2.5 5 -4
      vertex 2.5 5 -4
    endloop
  endfacet
  facet normal 0 1 0
    outer loop
      vertex -2.5 5 -4
      vertex 2.5 5 -5
      vertex -2.5 5 -5
    endloop
  endfacet
  facet normal -1 0 0
    outer loop
      vertex -2.5 -5 -5
      vertex -2.5 5 -4
      vertex -2.5 5 -5
    endloop
  endfacet
  facet normal -1 -0 0
    outer loop
      vertex -2.5 5 -4
      vertex -2.5 -5 -5
      vertex -2.5 -5 -4
    endloop
  endfacet
  facet normal 0 -1 0
    outer loop
      vertex -2.5 -5 -5
      vertex 2.5 -5 -4
      vertex -2.5 -5 -4
    endloop
  endfacet
  facet normal 0 -1 -0
    outer loop
      vertex 2.5 -5 -4
      vertex -2.5 -5 -5
      vertex 2.5 -5 -5
    endloop
  endfacet
  facet normal 0.1951 -0.980783 0
    outer loop
      vertex 2.5 -5 -5
      vertex 4.41341 -4.61938 -4
      vertex 2.5 -5 -4
    endloop
  endfacet
  facet normal 0.1951 -0.980783 0
    outer loop
      vertex 4.41341 -4.61938 -4
      vertex 2.5 -5 -5
      vertex 4.41341 -4.61938 -5
    endloop
  endfacet
  facet normal 1 -0 0
    outer loop
      vertex 1.59999 3.59999 -4
      vertex 1.59999 4.39999 -5
      vertex 1.59999 4.39999 -4
    endloop
  endfacet
  facet normal 1 0 0
    outer loop
      vertex 1.59999 4.39999 -5
      vertex 1.59999 3.59999 -4
      vertex 1.59999 3.59999 -5
    endloop
  endfacet
  facet normal 0 -1 0
    outer loop
      vertex 1.59999 4.39999 -5
      vertex 1.6 4.39999 -4
      vertex 1.59999 4.39999 -4
    endloop
  endfacet
  facet normal 0 -1 -0
    outer loop
      vertex 1.6 4.39999 -4
      vertex 1.59999 4.39999 -5
      vertex 1.6 4.39999 -5
    endloop
  endfacet
  facet normal -1 0 0
    outer loop
      vertex 2.39999 3.59999 -5
      vertex 2.39999 3.6 -4
      vertex 2.39999 3.6 -5
    endloop
  endfacet
  facet normal -1 -0 0
    outer loop
      vertex 2.39999 3.6 -4
      vertex 2.39999 3.59999 -5
      vertex 2.39999 3.59999 -4
    endloop
  endfacet
  facet normal 0 1 -0
    outer loop
      vertex 2.39999 3.59999 -5
      vertex 1.59999 3.59999 -4
      vertex 2.39999 3.59999 -4
    endloop
  endfacet
  facet normal 0 1 0
    outer loop
      vertex 1.59999 3.59999 -4
      vertex 2.39999 3.59999 -5
      vertex 1.59999 3.59999 -5
    endloop
  endfacet
  facet normal 1 -0 0
    outer loop
      vertex -1.04999 3.59999 -4
      vertex -1.04999 3.6 -5
      vertex -1.04999 3.6 -4
    endloop
  endfacet
  facet normal 1 0 0
    outer loop
      vertex -1.04999 3.6 -5
      vertex -1.04999 3.59999 -4
      vertex -1.04999 3.59999 -5
    endloop
  endfacet
  facet normal 0 -1 0
    outer loop
      vertex -0.25 4.39999 -5
      vertex -0.249985 4.39999 -4
      vertex -0.25 4.39999 -4
    endloop
  endfacet
  facet normal 0 -1 -0
    outer loop
      vertex -0.249985 4.39999 -4
      vertex -0.25 4.39999 -5
      vertex -0.249985 4.39999 -5
    endloop
  endfacet
  facet normal -1 0 0
    outer loop
      vertex -0.249985 3.59999 -5
      vertex -0.249985 4.39999 -4
      vertex -0.249985 4.39999 -5
    endloop
  endfacet
  facet normal -1 -0 0
    outer loop
      vertex -0.249985 4.39999 -4
      vertex -0.249985 3.59999 -5
      vertex -0.249985 3.59999 -4
    endloop
  endfacet
  facet normal 0 1 -0
    outer loop
      vertex -0.249985 3.59999 -5
      vertex -1.04999 3.59999 -4
      vertex -0.249985 3.59999 -4
    endloop
  endfacet
  facet normal 0 1 0
    outer loop
      vertex -1.04999 3.59999 -4
      vertex -0.249985 3.59999 -5
      vertex -1.04999 3.59999 -5
    endloop
  endfacet
  facet normal 1 -0 0
    outer loop
      vertex -0.5 -3 -4
      vertex -0.5 3 -5
      vertex -0.5 3 -4
    endloop
  endfacet
  facet normal 1 0 0
    outer loop
      vertex -0.5 3 -5
      vertex -0.5 -3 -4
      vertex -0.5 -3 -5
    endloop
  endfacet
  facet normal 0 -1 0
    outer loop
      vertex -0.5 3 -5
      vertex 2.30302 3 -4
      vertex -0.5 3 -4
    endloop
  endfacet
  facet normal 0 -1 -0
    outer loop
      vertex 2.30302 3 -4
      vertex -0.5 3 -5
      vertex 2.30302 3 -5
    endloop
  endfacet
  facet normal -0.195099 -0.980784 0
    outer loop
      vertex 2.30302 3 -5
      vertex 3.63304 2.73543 -4
      vertex 2.30302 3 -4
    endloop
  endfacet
  facet normal -0.195099 -0.980784 -0
    outer loop
      vertex 3.63304 2.73543 -4
      vertex 2.30302 3 -5
      vertex 3.63304 2.73543 -5
    endloop
  endfacet
  facet normal -0.555573 -0.831468 0
    outer loop
      vertex 3.63304 2.73543 -5
      vertex 4.5936 2.0936 -4
      vertex 3.63304 2.73543 -4
    endloop
  endfacet
  facet normal -0.555573 -0.831468 -0
    outer loop
      vertex 4.5936 2.0936 -4
      vertex 3.63304 2.73543 -5
      vertex 4.5936 2.0936 -5
    endloop
  endfacet
  facet normal -0.831468 -0.555573 0
    outer loop
      vertex 5.23543 1.13304 -5
      vertex 4.5936 2.0936 -4
      vertex 4.5936 2.0936 -5
    endloop
  endfacet
  facet normal -0.831468 -0.555573 0
    outer loop
      vertex 4.5936 2.0936 -4
      vertex 5.23543 1.13304 -5
      vertex 5.23543 1.13304 -4
    endloop
  endfacet
  facet normal -0.980783 -0.195102 0
    outer loop
      vertex 5.46082 0 -5
      vertex 5.23543 1.13304 -4
      vertex 5.23543 1.13304 -5
    endloop
  endfacet
  facet normal -0.980783 -0.195102 0
    outer loop
      vertex 5.23543 1.13304 -4
      vertex 5.46082 0 -5
      vertex 5.46082 0 -4
    endloop
  endfacet
  facet normal -0.980783 0.195102 0
    outer loop
      vertex 5.23543 -1.13304 -5
      vertex 5.46082 0 -4
      vertex 5.46082 0 -5
    endloop
  endfacet
  facet normal -0.980783 0.195102 0
    outer loop
      vertex 5.46082 0 -4
      vertex 5.23543 -1.13304 -5
      vertex 5.23543 -1.13304 -4
    endloop
  endfacet
  facet normal -0.831468 0.555573 0
    outer loop
      vertex 4.5936 -2.0936 -5
      vertex 5.23543 -1.13304 -4
      vertex 5.23543 -1.13304 -5
    endloop
  endfacet
  facet normal -0.831468 0.555573 0
    outer loop
      vertex 5.23543 -1.13304 -4
      vertex 4.5936 -2.0936 -5
      vertex 4.5936 -2.0936 -4
    endloop
  endfacet
  facet normal -0.555573 0.831468 0
    outer loop
      vertex 4.5936 -2.0936 -5
      vertex 3.63304 -2.73543 -4
      vertex 4.5936 -2.0936 -4
    endloop
  endfacet
  facet normal -0.555573 0.831468 0
    outer loop
      vertex 3.63304 -2.73543 -4
      vertex 4.5936 -2.0936 -5
      vertex 3.63304 -2.73543 -5
    endloop
  endfacet
  facet normal -0.195099 0.980784 0
    outer loop
      vertex 3.63304 -2.73543 -5
      vertex 2.30302 -3 -4
      vertex 3.63304 -2.73543 -4
    endloop
  endfacet
  facet normal -0.195099 0.980784 0
    outer loop
      vertex 2.30302 -3 -4
      vertex 3.63304 -2.73543 -5
      vertex 2.30302 -3 -5
    endloop
  endfacet
  facet normal 0 1 -0
    outer loop
      vertex 2.30302 -3 -5
      vertex -0.5 -3 -4
      vertex 2.30302 -3 -4
    endloop
  endfacet
  facet normal 0 1 0
    outer loop
      vertex -0.5 -3 -4
      vertex 2.30302 -3 -5
      vertex -0.5 -3 -5
    endloop
  endfacet
  facet normal 1 0 0
    outer loop
      vertex 6 0.399994 -4
      vertex 6 0.190211 -4.5618
      vertex 6 0.399994 -5
    endloop
  endfacet
  facet normal 1 0 0
    outer loop
      vertex 6 0.399994 -4
      vertex 6 0.117557 -4.3382
      vertex 6 0.190211 -4.5618
    endloop
  endfacet
  facet normal 1 0 0
    outer loop
      vertex 6 0.399994 -4
      vertex 6 -0.117557 -4.3382
      vertex 6 0.117557 -4.3382
    endloop
  endfacet
  facet normal 1 0 0
    outer loop
      vertex 6 -0.117557 -4.3382
      vertex 6 -0.399994 -4
      vertex 6 -0.190211 -4.5618
    endloop
  endfacet
  facet normal 1 -0 0
    outer loop
      vertex 6 -0.399994 -4
      vertex 6 -0.117557 -4.3382
      vertex 6 0.399994 -4
    endloop
  endfacet
  facet normal 1 -0 0
    outer loop
      vertex 6 0 -4.7
      vertex 6 0.399994 -5
      vertex 6 0.190211 -4.5618
    endloop
  endfacet
  facet normal 1 0 0
    outer loop
      vertex 6 -0.399994 -5
      vertex 6 0 -4.7
      vertex 6 -0.190211 -4.5618
    endloop
  endfacet
  facet normal 1 0 0
    outer loop
      vertex 6 0 -4.7
      vertex 6 -0.399994 -5
      vertex 6 0.399994 -5
    endloop
  endfacet
  facet normal 1 0 0
    outer loop
      vertex 6 -0.399994 -5
      vertex 6 -0.190211 -4.5618
      vertex 6 -0.399994 -4
    endloop
  endfacet
  facet normal 1 0 0
    outer loop
      vertex 6 0.117557 -4.3382
      vertex 6 0 -4.7
      vertex 6 0.190211 -4.5618
    endloop
  endfacet
  facet normal 1 -0 0
    outer loop
      vertex 6 -0.117557 -4.3382
      vertex 6 0 -4.7
      vertex 6 0.117557 -4.3382
    endloop
  endfacet
  facet normal 1 0 0
    outer loop
      vertex 6 0 -4.7
      vertex 6 -0.117557 -4.3382
      vertex 6 -0.190211 -4.5618
    endloop
  endfacet
  facet normal 0 -1 0
    outer loop
      vertex 6 0.399994 -5
      vertex 6.79999 0.399994 -4
      vertex 6 0.399994 -4
    endloop
  endfacet
  facet normal 0 -1 -0
    outer loop
      vertex 6.79999 0.399994 -4
      vertex 6 0.399994 -5
      vertex 6.79999 0.399994 -5
    endloop
  endfacet
  facet normal -1 0 0
    outer loop
      vertex 6.79999 0.399994 -5
      vertex 6.79999 0.190211 -4.5618
      vertex 6.79999 0.399994 -4
    endloop
  endfacet
  facet normal -1 0 0
    outer loop
      vertex 6.79999 0.399994 -5
      vertex 6.79999 0 -4.7
      vertex 6.79999 0.190211 -4.5618
    endloop
  endfacet
  facet normal -1 0 0
    outer loop
      vertex 6.79999 -0.399994 -5
      vertex 6.79999 0 -4.7
      vertex 6.79999 0.399994 -5
    endloop
  endfacet
  facet normal -1 -0 0
    outer loop
      vertex 6.79999 0 -4.7
      vertex 6.79999 -0.399994 -5
      vertex 6.79999 -0.190211 -4.5618
    endloop
  endfacet
  facet normal -1 0 0
    outer loop
      vertex 6.79999 0.117557 -4.3382
      vertex 6.79999 0.399994 -4
      vertex 6.79999 0.190211 -4.5618
    endloop
  endfacet
  facet normal -1 0 0
    outer loop
      vertex 6.79999 -0.117557 -4.3382
      vertex 6.79999 0.399994 -4
      vertex 6.79999 0.117557 -4.3382
    endloop
  endfacet
  facet normal -1 0 0
    outer loop
      vertex 6.79999 -0.399994 -4
      vertex 6.79999 -0.190211 -4.5618
      vertex 6.79999 -0.399994 -5
    endloop
  endfacet
  facet normal -1 0 0
    outer loop
      vertex 6.79999 -0.117557 -4.3382
      vertex 6.79999 -0.399994 -4
      vertex 6.79999 0.399994 -4
    endloop
  endfacet
  facet normal -1 0 0
    outer loop
      vertex 6.79999 -0.190211 -4.5618
      vertex 6.79999 -0.399994 -4
      vertex 6.79999 -0.117557 -4.3382
    endloop
  endfacet
  facet normal 0 1 -0
    outer loop
      vertex 6.79999 -0.399994 -5
      vertex 6 -0.399994 -4
      vertex 6.79999 -0.399994 -4
    endloop
  endfacet
  facet normal 0 1 0
    outer loop
      vertex 6 -0.399994 -4
      vertex 6.79999 -0.399994 -5
      vertex 6 -0.399994 -5
    endloop
  endfacet
  facet normal 1 -0 0
    outer loop
      vertex 1.59999 -4.39999 -4
      vertex 1.59999 -3.59999 -5
      vertex 1.59999 -3.59999 -4
    endloop
  endfacet
  facet normal 1 0 0
    outer loop
      vertex 1.59999 -3.59999 -5
      vertex 1.59999 -4.39999 -4
      vertex 1.59999 -4.39999 -5
    endloop
  endfacet
  facet normal 0 -1 0
    outer loop
      vertex 1.59999 -3.59999 -5
      vertex 2.39999 -3.59999 -4
      vertex 1.59999 -3.59999 -4
    endloop
  endfacet
  facet normal 0 -1 -0
    outer loop
      vertex 2.39999 -3.59999 -4
      vertex 1.59999 -3.59999 -5
      vertex 2.39999 -3.59999 -5
    endloop
  endfacet
  facet normal -1 0 0
    outer loop
      vertex 2.39999 -3.6 -5
      vertex 2.39999 -3.59999 -4
      vertex 2.39999 -3.59999 -5
    endloop
  endfacet
  facet normal -1 -0 0
    outer loop
      vertex 2.39999 -3.59999 -4
      vertex 2.39999 -3.6 -5
      vertex 2.39999 -3.6 -4
    endloop
  endfacet
  facet normal 0 1 -0
    outer loop
      vertex 1.6 -4.39999 -5
      vertex 1.59999 -4.39999 -4
      vertex 1.6 -4.39999 -4
    endloop
  endfacet
  facet normal 0 1 0
    outer loop
      vertex 1.59999 -4.39999 -4
      vertex 1.6 -4.39999 -5
      vertex 1.59999 -4.39999 -5
    endloop
  endfacet
  facet normal 1 -0 0
    outer loop
      vertex -1.04999 -3.6 -4
      vertex -1.04999 -3.59999 -5
      vertex -1.04999 -3.59999 -4
    endloop
  endfacet
  facet normal 1 0 0
    outer loop
      vertex -1.04999 -3.59999 -5
      vertex -1.04999 -3.6 -4
      vertex -1.04999 -3.6 -5
    endloop
  endfacet
  facet normal 0 -1 0
    outer loop
      vertex -1.04999 -3.59999 -5
      vertex -0.249985 -3.59999 -4
      vertex -1.04999 -3.59999 -4
    endloop
  endfacet
  facet normal 0 -1 -0
    outer loop
      vertex -0.249985 -3.59999 -4
      vertex -1.04999 -3.59999 -5
      vertex -0.249985 -3.59999 -5
    endloop
  endfacet
  facet normal -1 0 0
    outer loop
      vertex -0.249985 -4.39999 -5
      vertex -0.249985 -3.59999 -4
      vertex -0.249985 -3.59999 -5
    endloop
  endfacet
  facet normal -1 -0 0
    outer loop
      vertex -0.249985 -3.59999 -4
      vertex -0.249985 -4.39999 -5
      vertex -0.249985 -4.39999 -4
    endloop
  endfacet
  facet normal 0 1 -0
    outer loop
      vertex -0.249985 -4.39999 -5
      vertex -0.25 -4.39999 -4
      vertex -0.249985 -4.39999 -4
    endloop
  endfacet
  facet normal 0 1 0
    outer loop
      vertex -0.25 -4.39999 -4
      vertex -0.249985 -4.39999 -5
      vertex -0.25 -4.39999 -5
    endloop
  endfacet
  facet normal -0 -0.951054 -0.309025
    outer loop
      vertex 7.46216 0.190211 -4.5618
      vertex 6.79999 0.117557 -4.3382
      vertex 6.79999 0.190211 -4.5618
    endloop
  endfacet
  facet normal 0 -0.951054 -0.309025
    outer loop
      vertex 6.79999 0.117557 -4.3382
      vertex 7.46216 0.190211 -4.5618
      vertex 7.47662 0.117557 -4.3382
    endloop
  endfacet
  facet normal 0 0 -1
    outer loop
      vertex 7.47662 -0.117557 -4.3382
      vertex 7.47662 0.117557 -4.3382
      vertex 7.5 0 -4.3382
    endloop
  endfacet
  facet normal 0 0 -1
    outer loop
      vertex 6.79999 -0.117557 -4.3382
      vertex 7.47662 0.117557 -4.3382
      vertex 7.47662 -0.117557 -4.3382
    endloop
  endfacet
  facet normal -0 0 -1
    outer loop
      vertex 7.47662 0.117557 -4.3382
      vertex 6.79999 -0.117557 -4.3382
      vertex 6.79999 0.117557 -4.3382
    endloop
  endfacet
  facet normal 0 0.951054 -0.309025
    outer loop
      vertex 7.46216 -0.190211 -4.5618
      vertex 6.79999 -0.117557 -4.3382
      vertex 7.47662 -0.117557 -4.3382
    endloop
  endfacet
  facet normal 0 0.951054 -0.309025
    outer loop
      vertex 6.79999 -0.117557 -4.3382
      vertex 7.46216 -0.190211 -4.5618
      vertex 6.79999 -0.190211 -4.5618
    endloop
  endfacet
  facet normal 0 -0.587795 0.80901
    outer loop
      vertex 6.79999 0 -4.7
      vertex 7.46216 0.190211 -4.5618
      vertex 6.79999 0.190211 -4.5618
    endloop
  endfacet
  facet normal 0 -0.587795 0.80901
    outer loop
      vertex 7.46216 0.190211 -4.5618
      vertex 6.79999 0 -4.7
      vertex 7.5 0 -4.7
    endloop
  endfacet
  facet normal -0 0.587795 0.80901
    outer loop
      vertex 6.79999 0 -4.7
      vertex 7.46216 -0.190211 -4.5618
      vertex 7.5 0 -4.7
    endloop
  endfacet
  facet normal 0 0.587795 0.80901
    outer loop
      vertex 7.46216 -0.190211 -4.5618
      vertex 6.79999 0 -4.7
      vertex 6.79999 -0.190211 -4.5618
    endloop
  endfacet
  facet normal 0 0 -1
    outer loop
      vertex -1.05 -3.6 5
      vertex -1.04999 -3.59999 5
      vertex -1.04999 -3.6 5
    endloop
  endfacet
  facet normal -0 0 -1
    outer loop
      vertex -1.04999 -3.59999 5
      vertex -1.05 -3.6 5
      vertex -1.04999 3.59999 5
    endloop
  endfacet
  facet normal 0 0 -1
    outer loop
      vertex -1.05 3.6 5
      vertex -1.04999 3.59999 5
      vertex -1.05 -3.6 5
    endloop
  endfacet
  facet normal 0 0 -1
    outer loop
      vertex -1.04999 3.59999 5
      vertex -1.05 3.6 5
      vertex -1.04999 3.6 5
    endloop
  endfacet
  facet normal 0 0 -1
    outer loop
      vertex 1.6 4.39999 5
      vertex 1.59999 4.39999 5
      vertex 1.6 4.4 5
    endloop
  endfacet
  facet normal 0 0 -1
    outer loop
      vertex 2.5 -5 5
      vertex 1.6 -4.4 5
      vertex 2.4 -4.4 5
    endloop
  endfacet
  facet normal 0 0 -1
    outer loop
      vertex 1.6 -4.4 5
      vertex 1.59999 -4.39999 5
      vertex 1.6 -4.39999 5
    endloop
  endfacet
  facet normal 0 0 -1
    outer loop
      vertex -0.249985 -4.39999 5
      vertex 1.6 -4.4 5
      vertex 2.5 -5 5
    endloop
  endfacet
  facet normal 0 0 -1
    outer loop
      vertex 1.59999 -4.39999 5
      vertex -0.249985 -4.39999 5
      vertex 1.59999 -3.59999 5
    endloop
  endfacet
  facet normal 0 0 -1
    outer loop
      vertex 1.6 -4.4 5
      vertex -0.249985 -4.39999 5
      vertex 1.59999 -4.39999 5
    endloop
  endfacet
  facet normal 0 0 -1
    outer loop
      vertex 2.5 -5 5
      vertex -0.25 -4.4 5
      vertex -0.249985 -4.39999 5
    endloop
  endfacet
  facet normal 0 0 -1
    outer loop
      vertex -2.5 -5 5
      vertex -0.25 -4.4 5
      vertex 2.5 -5 5
    endloop
  endfacet
  facet normal 0 0 -1
    outer loop
      vertex -2.5 -5 5
      vertex -1.05 -3.6 5
      vertex -1.05 -4.4 5
    endloop
  endfacet
  facet normal -0 0 -1
    outer loop
      vertex -1.05 -3.6 5
      vertex -2.5 -5 5
      vertex -1.05 3.6 5
    endloop
  endfacet
  facet normal 0 0 -1
    outer loop
      vertex -2.5 5 5
      vertex -1.05 3.6 5
      vertex -2.5 -5 5
    endloop
  endfacet
  facet normal -0 0 -1
    outer loop
      vertex -0.25 -4.4 5
      vertex -2.5 -5 5
      vertex -1.05 -4.4 5
    endloop
  endfacet
  facet normal 0 0 -1
    outer loop
      vertex 6.79999 -0.399994 5
      vertex 7.5 0 5
      vertex 7.11938 -1.91341 5
    endloop
  endfacet
  facet normal 0 0 -1
    outer loop
      vertex 6.79999 0.399994 5
      vertex 7.5 0 5
      vertex 6.79999 -0.399994 5
    endloop
  endfacet
  facet normal 0 0 -1
    outer loop
      vertex 5.23543 -1.13304 5
      vertex 7.11938 -1.91341 5
      vertex 6.03552 -3.53552 5
    endloop
  endfacet
  facet normal 0 -0 -1
    outer loop
      vertex 6 -0.399994 5
      vertex 7.11938 -1.91341 5
      vertex 5.23543 -1.13304 5
    endloop
  endfacet
  facet normal 0 0 -1
    outer loop
      vertex 6 -0.399994 5
      vertex 5.46082 0 5
      vertex 6 0.399994 5
    endloop
  endfacet
  facet normal 0 0 -1
    outer loop
      vertex 7.11938 -1.91341 5
      vertex 6 -0.399994 5
      vertex 6.79999 -0.399994 5
    endloop
  endfacet
  facet normal -0 0 -1
    outer loop
      vertex 6 -0.399994 5
      vertex 5.23543 -1.13304 5
      vertex 5.46082 0 5
    endloop
  endfacet
  facet normal 0 0 -1
    outer loop
      vertex 6.03552 -3.53552 5
      vertex 4.5936 -2.0936 5
      vertex 5.23543 -1.13304 5
    endloop
  endfacet
  facet normal 0 0 -1
    outer loop
      vertex 4.41341 -4.61938 5
      vertex 4.5936 -2.0936 5
      vertex 6.03552 -3.53552 5
    endloop
  endfacet
  facet normal 0 0 -1
    outer loop
      vertex 4.41341 -4.61938 5
      vertex 3.63304 -2.73543 5
      vertex 4.5936 -2.0936 5
    endloop
  endfacet
  facet normal 0 0 -1
    outer loop
      vertex 2.4 -4.4 5
      vertex 4.41341 -4.61938 5
      vertex 2.5 -5 5
    endloop
  endfacet
  facet normal 0 0 -1
    outer loop
      vertex 2.4 -3.6 5
      vertex 4.41341 -4.61938 5
      vertex 2.4 -4.4 5
    endloop
  endfacet
  facet normal 0 0 -1
    outer loop
      vertex 4.41341 -4.61938 5
      vertex 2.4 -3.6 5
      vertex 3.63304 -2.73543 5
    endloop
  endfacet
  facet normal 0 0 -1
    outer loop
      vertex 2.39999 -3.59999 5
      vertex 2.4 -3.6 5
      vertex 2.39999 -3.6 5
    endloop
  endfacet
  facet normal 0 0 -1
    outer loop
      vertex 2.30302 -3 5
      vertex 2.4 -3.6 5
      vertex 2.39999 -3.59999 5
    endloop
  endfacet
  facet normal 0 0 -1
    outer loop
      vertex 2.4 -3.6 5
      vertex 2.30302 -3 5
      vertex 3.63304 -2.73543 5
    endloop
  endfacet
  facet normal 0 0 -1
    outer loop
      vertex 1.59999 -3.59999 5
      vertex 2.30302 -3 5
      vertex 2.39999 -3.59999 5
    endloop
  endfacet
  facet normal 0 0 -1
    outer loop
      vertex -0.249985 -3.59999 5
      vertex 1.59999 -3.59999 5
      vertex -0.249985 -4.39999 5
    endloop
  endfacet
  facet normal 0 0 -1
    outer loop
      vertex -0.5 -3 5
      vertex 1.59999 -3.59999 5
      vertex -0.249985 -3.59999 5
    endloop
  endfacet
  facet normal 0 0 -1
    outer loop
      vertex 1.59999 -3.59999 5
      vertex -0.5 -3 5
      vertex 2.30302 -3 5
    endloop
  endfacet
  facet normal -0 0 -1
    outer loop
      vertex -0.5 -3 5
      vertex -1.04999 -3.59999 5
      vertex -0.5 3 5
    endloop
  endfacet
  facet normal 0 0 -1
    outer loop
      vertex -1.04999 -3.59999 5
      vertex -0.5 -3 5
      vertex -0.249985 -3.59999 5
    endloop
  endfacet
  facet normal 0 0 -1
    outer loop
      vertex 7.5 0 5
      vertex 6.79999 0.399994 5
      vertex 7.11938 1.91341 5
    endloop
  endfacet
  facet normal 0 0 -1
    outer loop
      vertex 6 0.399994 5
      vertex 7.11938 1.91341 5
      vertex 6.79999 0.399994 5
    endloop
  endfacet
  facet normal 0 0 -1
    outer loop
      vertex 7.11938 1.91341 5
      vertex 6 0.399994 5
      vertex 5.23543 1.13304 5
    endloop
  endfacet
  facet normal 0 0 -1
    outer loop
      vertex 5.23543 1.13304 5
      vertex 6 0.399994 5
      vertex 5.46082 0 5
    endloop
  endfacet
  facet normal -0 0 -1
    outer loop
      vertex 7.11938 1.91341 5
      vertex 5.23543 1.13304 5
      vertex 6.03552 3.53552 5
    endloop
  endfacet
  facet normal 0 0 -1
    outer loop
      vertex 4.5936 2.0936 5
      vertex 6.03552 3.53552 5
      vertex 5.23543 1.13304 5
    endloop
  endfacet
  facet normal 0 0 -1
    outer loop
      vertex 4.5936 2.0936 5
      vertex 4.41341 4.61938 5
      vertex 6.03552 3.53552 5
    endloop
  endfacet
  facet normal 0 0 -1
    outer loop
      vertex 3.63304 2.73543 5
      vertex 4.41341 4.61938 5
      vertex 4.5936 2.0936 5
    endloop
  endfacet
  facet normal 0 0 -1
    outer loop
      vertex 2.4 3.6 5
      vertex 4.41341 4.61938 5
      vertex 3.63304 2.73543 5
    endloop
  endfacet
  facet normal 0 0 -1
    outer loop
      vertex 4.41341 4.61938 5
      vertex 2.4 3.6 5
      vertex 2.4 4.4 5
    endloop
  endfacet
  facet normal 0 0 -1
    outer loop
      vertex 2.30302 3 5
      vertex 2.4 3.6 5
      vertex 3.63304 2.73543 5
    endloop
  endfacet
  facet normal 0 0 -1
    outer loop
      vertex 2.4 3.6 5
      vertex 2.30302 3 5
      vertex 2.39999 3.59999 5
    endloop
  endfacet
  facet normal 0 0 -1
    outer loop
      vertex 2.30302 3 5
      vertex 1.59999 3.59999 5
      vertex 2.39999 3.59999 5
    endloop
  endfacet
  facet normal 0 0 -1
    outer loop
      vertex 1.59999 3.59999 5
      vertex -0.249985 3.59999 5
      vertex 1.59999 4.39999 5
    endloop
  endfacet
  facet normal 0 0 -1
    outer loop
      vertex -0.5 3 5
      vertex 1.59999 3.59999 5
      vertex 2.30302 3 5
    endloop
  endfacet
  facet normal -0 0 -1
    outer loop
      vertex 1.59999 3.59999 5
      vertex -0.5 3 5
      vertex -0.249985 3.59999 5
    endloop
  endfacet
  facet normal 0 0 -1
    outer loop
      vertex -0.5 3 5
      vertex -1.04999 3.59999 5
      vertex -0.249985 3.59999 5
    endloop
  endfacet
  facet normal 0 0 -1
    outer loop
      vertex -1.04999 3.59999 5
      vertex -0.5 3 5
      vertex -1.04999 -3.59999 5
    endloop
  endfacet
  facet normal -0 0 -1
    outer loop
      vertex 4.41341 4.61938 5
      vertex 2.4 4.4 5
      vertex 2.5 5 5
    endloop
  endfacet
  facet normal 0 0 -1
    outer loop
      vertex 1.6 4.4 5
      vertex 2.5 5 5
      vertex 2.4 4.4 5
    endloop
  endfacet
  facet normal 0 0 -1
    outer loop
      vertex -0.249985 4.39999 5
      vertex 1.6 4.4 5
      vertex 1.59999 4.39999 5
    endloop
  endfacet
  facet normal 0 0 -1
    outer loop
      vertex -0.249985 4.39999 5
      vertex 1.59999 4.39999 5
      vertex -0.249985 3.59999 5
    endloop
  endfacet
  facet normal -0 0 -1
    outer loop
      vertex 1.6 4.4 5
      vertex -0.249985 4.39999 5
      vertex 2.5 5 5
    endloop
  endfacet
  facet normal 0 0 -1
    outer loop
      vertex -0.25 4.4 5
      vertex -0.249985 4.39999 5
      vertex -0.25 4.39999 5
    endloop
  endfacet
  facet normal 0 0 -1
    outer loop
      vertex -0.249985 4.39999 5
      vertex -0.25 4.4 5
      vertex 2.5 5 5
    endloop
  endfacet
  facet normal 0 0 -1
    outer loop
      vertex -2.5 5 5
      vertex -0.25 4.4 5
      vertex -1.05 4.4 5
    endloop
  endfacet
  facet normal 0 0 -1
    outer loop
      vertex -0.25 4.4 5
      vertex -2.5 5 5
      vertex 2.5 5 5
    endloop
  endfacet
  facet normal 0 0 -1
    outer loop
      vertex -1.05 3.6 5
      vertex -2.5 5 5
      vertex -1.05 4.4 5
    endloop
  endfacet
  facet normal -0 0 -1
    outer loop
      vertex 2.4 3.6 5
      vertex 2.39999 3.59999 5
      vertex 2.39999 3.6 5
    endloop
  endfacet
  facet normal -0 0 -1
    outer loop
      vertex -0.249985 -4.39999 5
      vertex -0.25 -4.4 5
      vertex -0.25 -4.39999 5
    endloop
  endfacet
  facet normal 0 0 1
    outer loop
      vertex -0.25 -3.6 6
      vertex -1.04999 -3.6 6
      vertex -0.25 -4.39999 6
    endloop
  endfacet
  facet normal 0 0 1
    outer loop
      vertex 2.5 5 6
      vertex 1.6 4.39999 6
      vertex 2.39999 3.6 6
    endloop
  endfacet
  facet normal 0 0 1
    outer loop
      vertex 2.5 5 6
      vertex 1.59999 4.39999 6
      vertex 1.6 4.39999 6
    endloop
  endfacet
  facet normal 0 0 1
    outer loop
      vertex 1.59999 4.39999 6
      vertex -0.249985 4.39999 6
      vertex 1.59999 3.59999 6
    endloop
  endfacet
  facet normal 0 0 1
    outer loop
      vertex 2.5 5 6
      vertex -0.249985 4.39999 6
      vertex 1.59999 4.39999 6
    endloop
  endfacet
  facet normal -0 0 1
    outer loop
      vertex -2.5 5 6
      vertex -0.249985 4.39999 6
      vertex 2.5 5 6
    endloop
  endfacet
  facet normal 0 0 1
    outer loop
      vertex -0.25 4.39999 6
      vertex -1.04999 3.6 6
      vertex -0.25 3.6 6
    endloop
  endfacet
  facet normal 0 0 1
    outer loop
      vertex -2.5 5 6
      vertex -1.04999 3.59999 6
      vertex -1.04999 3.6 6
    endloop
  endfacet
  facet normal 0 0 1
    outer loop
      vertex -1.04999 3.59999 6
      vertex -2.5 5 6
      vertex -1.04999 -3.59999 6
    endloop
  endfacet
  facet normal 0 0 1
    outer loop
      vertex -2.5 -5 6
      vertex -1.04999 -3.59999 6
      vertex -2.5 5 6
    endloop
  endfacet
  facet normal 0 0 1
    outer loop
      vertex -0.25 4.39999 6
      vertex -2.5 5 6
      vertex -1.04999 3.6 6
    endloop
  endfacet
  facet normal 0 0 1
    outer loop
      vertex -0.249985 4.39999 6
      vertex -2.5 5 6
      vertex -0.25 4.39999 6
    endloop
  endfacet
  facet normal -0 0 1
    outer loop
      vertex 6.79999 0.399994 6
      vertex 7.5 0 6
      vertex 7.11938 1.91341 6
    endloop
  endfacet
  facet normal 0 0 1
    outer loop
      vertex 6.79999 -0.399994 6
      vertex 7.5 0 6
      vertex 6.79999 0.399994 6
    endloop
  endfacet
  facet normal 0 0 1
    outer loop
      vertex 5.23543 1.13304 6
      vertex 7.11938 1.91341 6
      vertex 6.03552 3.53552 6
    endloop
  endfacet
  facet normal 0 -0 1
    outer loop
      vertex 6 0.399994 6
      vertex 7.11938 1.91341 6
      vertex 5.23543 1.13304 6
    endloop
  endfacet
  facet normal 0 0 1
    outer loop
      vertex 6 0.399994 6
      vertex 5.46082 0 6
      vertex 6 -0.399994 6
    endloop
  endfacet
  facet normal 0 0 1
    outer loop
      vertex 7.11938 1.91341 6
      vertex 6 0.399994 6
      vertex 6.79999 0.399994 6
    endloop
  endfacet
  facet normal 0 0 1
    outer loop
      vertex 6 0.399994 6
      vertex 5.23543 1.13304 6
      vertex 5.46082 0 6
    endloop
  endfacet
  facet normal 0 0 1
    outer loop
      vertex 6.03552 3.53552 6
      vertex 4.5936 2.0936 6
      vertex 5.23543 1.13304 6
    endloop
  endfacet
  facet normal 0 0 1
    outer loop
      vertex 4.41341 4.61938 6
      vertex 4.5936 2.0936 6
      vertex 6.03552 3.53552 6
    endloop
  endfacet
  facet normal 0 0 1
    outer loop
      vertex 4.41341 4.61938 6
      vertex 3.63304 2.73543 6
      vertex 4.5936 2.0936 6
    endloop
  endfacet
  facet normal 0 0 1
    outer loop
      vertex 2.39999 3.6 6
      vertex 4.41341 4.61938 6
      vertex 2.5 5 6
    endloop
  endfacet
  facet normal 0 0 1
    outer loop
      vertex 4.41341 4.61938 6
      vertex 2.39999 3.6 6
      vertex 3.63304 2.73543 6
    endloop
  endfacet
  facet normal -0 0 1
    outer loop
      vertex 2.39999 3.59999 6
      vertex 3.63304 2.73543 6
      vertex 2.39999 3.6 6
    endloop
  endfacet
  facet normal 0 0 1
    outer loop
      vertex 2.39999 3.59999 6
      vertex 2.30302 3 6
      vertex 3.63304 2.73543 6
    endloop
  endfacet
  facet normal -0 0 1
    outer loop
      vertex 1.59999 3.59999 6
      vertex 2.30302 3 6
      vertex 2.39999 3.59999 6
    endloop
  endfacet
  facet normal 0 0 1
    outer loop
      vertex -0.249985 3.59999 6
      vertex 1.59999 3.59999 6
      vertex -0.249985 4.39999 6
    endloop
  endfacet
  facet normal 0 0 1
    outer loop
      vertex -0.5 3 6
      vertex 1.59999 3.59999 6
      vertex -0.249985 3.59999 6
    endloop
  endfacet
  facet normal 0 0 1
    outer loop
      vertex 1.59999 3.59999 6
      vertex -0.5 3 6
      vertex 2.30302 3 6
    endloop
  endfacet
  facet normal 0 0 1
    outer loop
      vertex -0.5 3 6
      vertex -1.04999 3.59999 6
      vertex -0.5 -3 6
    endloop
  endfacet
  facet normal -0 0 1
    outer loop
      vertex -1.04999 3.59999 6
      vertex -0.5 3 6
      vertex -0.249985 3.59999 6
    endloop
  endfacet
  facet normal 0 0 1
    outer loop
      vertex 7.5 0 6
      vertex 6.79999 -0.399994 6
      vertex 7.11938 -1.91341 6
    endloop
  endfacet
  facet normal -0 0 1
    outer loop
      vertex 6 -0.399994 6
      vertex 7.11938 -1.91341 6
      vertex 6.79999 -0.399994 6
    endloop
  endfacet
  facet normal 0 0 1
    outer loop
      vertex 7.11938 -1.91341 6
      vertex 6 -0.399994 6
      vertex 5.23543 -1.13304 6
    endloop
  endfacet
  facet normal 0 0 1
    outer loop
      vertex 5.23543 -1.13304 6
      vertex 6 -0.399994 6
      vertex 5.46082 0 6
    endloop
  endfacet
  facet normal 0 0 1
    outer loop
      vertex 7.11938 -1.91341 6
      vertex 5.23543 -1.13304 6
      vertex 6.03552 -3.53552 6
    endloop
  endfacet
  facet normal -0 0 1
    outer loop
      vertex 4.5936 -2.0936 6
      vertex 6.03552 -3.53552 6
      vertex 5.23543 -1.13304 6
    endloop
  endfacet
  facet normal 0 0 1
    outer loop
      vertex 4.5936 -2.0936 6
      vertex 4.41341 -4.61938 6
      vertex 6.03552 -3.53552 6
    endloop
  endfacet
  facet normal -0 0 1
    outer loop
      vertex 3.63304 -2.73543 6
      vertex 4.41341 -4.61938 6
      vertex 4.5936 -2.0936 6
    endloop
  endfacet
  facet normal -0 0 1
    outer loop
      vertex 2.39999 -3.6 6
      vertex 4.41341 -4.61938 6
      vertex 3.63304 -2.73543 6
    endloop
  endfacet
  facet normal 0 0 1
    outer loop
      vertex 2.39999 -3.6 6
      vertex 3.63304 -2.73543 6
      vertex 2.39999 -3.59999 6
    endloop
  endfacet
  facet normal -0 0 1
    outer loop
      vertex 2.30302 -3 6
      vertex 2.39999 -3.59999 6
      vertex 3.63304 -2.73543 6
    endloop
  endfacet
  facet normal 0 0 1
    outer loop
      vertex 2.30302 -3 6
      vertex 1.59999 -3.59999 6
      vertex 2.39999 -3.59999 6
    endloop
  endfacet
  facet normal 0 0 1
    outer loop
      vertex 1.59999 -3.59999 6
      vertex -0.249985 -3.59999 6
      vertex 1.59999 -4.39999 6
    endloop
  endfacet
  facet normal -0 0 1
    outer loop
      vertex -0.5 -3 6
      vertex 1.59999 -3.59999 6
      vertex 2.30302 -3 6
    endloop
  endfacet
  facet normal 0 0 1
    outer loop
      vertex 1.59999 -3.59999 6
      vertex -0.5 -3 6
      vertex -0.249985 -3.59999 6
    endloop
  endfacet
  facet normal 0 0 1
    outer loop
      vertex -0.5 -3 6
      vertex -1.04999 -3.59999 6
      vertex -0.249985 -3.59999 6
    endloop
  endfacet
  facet normal 0 0 1
    outer loop
      vertex -1.04999 -3.59999 6
      vertex -0.5 -3 6
      vertex -1.04999 3.59999 6
    endloop
  endfacet
  facet normal 0 0 1
    outer loop
      vertex 4.41341 -4.61938 6
      vertex 2.39999 -3.6 6
      vertex 2.5 -5 6
    endloop
  endfacet
  facet normal 0 0 1
    outer loop
      vertex 1.6 -4.39999 6
      vertex 2.39999 -3.6 6
      vertex 1.6 -3.6 6
    endloop
  endfacet
  facet normal 0 0 1
    outer loop
      vertex 2.39999 -3.6 6
      vertex 1.6 -4.39999 6
      vertex 2.5 -5 6
    endloop
  endfacet
  facet normal -0 0 1
    outer loop
      vertex 1.59999 -4.39999 6
      vertex 2.5 -5 6
      vertex 1.6 -4.39999 6
    endloop
  endfacet
  facet normal 0 0 1
    outer loop
      vertex -0.249985 -4.39999 6
      vertex 1.59999 -4.39999 6
      vertex -0.249985 -3.59999 6
    endloop
  endfacet
  facet normal 0 0 1
    outer loop
      vertex 1.59999 -4.39999 6
      vertex -0.249985 -4.39999 6
      vertex 2.5 -5 6
    endloop
  endfacet
  facet normal 0 0 1
    outer loop
      vertex -2.5 -5 6
      vertex -0.249985 -4.39999 6
      vertex -0.25 -4.39999 6
    endloop
  endfacet
  facet normal 0 0 1
    outer loop
      vertex -0.249985 -4.39999 6
      vertex -2.5 -5 6
      vertex 2.5 -5 6
    endloop
  endfacet
  facet normal 0 0 1
    outer loop
      vertex -1.04999 -3.6 6
      vertex -2.5 -5 6
      vertex -0.25 -4.39999 6
    endloop
  endfacet
  facet normal 0 0 1
    outer loop
      vertex -1.04999 -3.59999 6
      vertex -2.5 -5 6
      vertex -1.04999 -3.6 6
    endloop
  endfacet
  facet normal 0 0 1
    outer loop
      vertex 2.39999 3.6 6
      vertex 1.6 4.39999 6
      vertex 1.6 3.6 6
    endloop
  endfacet
  facet normal 0.55557 -0.831469 0
    outer loop
      vertex 4.41341 -4.61938 5
      vertex 6.03552 -3.53552 6
      vertex 4.41341 -4.61938 6
    endloop
  endfacet
  facet normal 0.55557 -0.831469 0
    outer loop
      vertex 6.03552 -3.53552 6
      vertex 4.41341 -4.61938 5
      vertex 6.03552 -3.53552 5
    endloop
  endfacet
  facet normal 0.831469 -0.55557 0
    outer loop
      vertex 6.03552 -3.53552 6
      vertex 7.11938 -1.91341 5
      vertex 7.11938 -1.91341 6
    endloop
  endfacet
  facet normal 0.831469 -0.55557 0
    outer loop
      vertex 7.11938 -1.91341 5
      vertex 6.03552 -3.53552 6
      vertex 6.03552 -3.53552 5
    endloop
  endfacet
  facet normal 0.980791 -0.195062 0
    outer loop
      vertex 7.5 0 6
      vertex 7.47662 -0.117557 5.6618
      vertex 7.5 0 5.6618
    endloop
  endfacet
  facet normal 0.980782 -0.195108 -3.01961e-05
    outer loop
      vertex 7.47662 -0.117557 5.6618
      vertex 7.11938 -1.91341 6
      vertex 7.46216 -0.190211 5.4382
    endloop
  endfacet
  facet normal 0.980783 -0.1951 1.36702e-05
    outer loop
      vertex 7.11938 -1.91341 6
      vertex 7.47662 -0.117557 5.6618
      vertex 7.5 0 6
    endloop
  endfacet
  facet normal 0.980781 -0.195114 0
    outer loop
      vertex 7.46216 -0.190211 5.4382
      vertex 7.5 0 5
      vertex 7.5 0 5.3
    endloop
  endfacet
  facet normal 0.980784 -0.195098 0
    outer loop
      vertex 7.11938 -1.91341 5
      vertex 7.46216 -0.190211 5.4382
      vertex 7.11938 -1.91341 6
    endloop
  endfacet
  facet normal 0.980783 -0.1951 6.22725e-06
    outer loop
      vertex 7.46216 -0.190211 5.4382
      vertex 7.11938 -1.91341 5
      vertex 7.5 0 5
    endloop
  endfacet
  facet normal 0.980784 0.195098 0
    outer loop
      vertex 7.11938 1.91341 6
      vertex 7.46216 0.190211 5.4382
      vertex 7.11938 1.91341 5
    endloop
  endfacet
  facet normal 0.980782 0.195108 -3.01961e-05
    outer loop
      vertex 7.11938 1.91341 6
      vertex 7.47662 0.117557 5.6618
      vertex 7.46216 0.190211 5.4382
    endloop
  endfacet
  facet normal 0.980783 0.1951 1.36702e-05
    outer loop
      vertex 7.5 0 6
      vertex 7.47662 0.117557 5.6618
      vertex 7.11938 1.91341 6
    endloop
  endfacet
  facet normal 0.980791 0.195062 0
    outer loop
      vertex 7.47662 0.117557 5.6618
      vertex 7.5 0 6
      vertex 7.5 0 5.6618
    endloop
  endfacet
  facet normal 0.980781 0.195114 -0
    outer loop
      vertex 7.5 0 5
      vertex 7.46216 0.190211 5.4382
      vertex 7.5 0 5.3
    endloop
  endfacet
  facet normal 0.980783 0.1951 6.22725e-06
    outer loop
      vertex 7.46216 0.190211 5.4382
      vertex 7.5 0 5
      vertex 7.11938 1.91341 5
    endloop
  endfacet
  facet normal 0.831469 0.55557 0
    outer loop
      vertex 7.11938 1.91341 6
      vertex 6.03552 3.53552 5
      vertex 6.03552 3.53552 6
    endloop
  endfacet
  facet normal 0.831469 0.55557 0
    outer loop
      vertex 6.03552 3.53552 5
      vertex 7.11938 1.91341 6
      vertex 7.11938 1.91341 5
    endloop
  endfacet
  facet normal 0.55557 0.831469 -0
    outer loop
      vertex 6.03552 3.53552 5
      vertex 4.41341 4.61938 6
      vertex 6.03552 3.53552 6
    endloop
  endfacet
  facet normal 0.55557 0.831469 0
    outer loop
      vertex 4.41341 4.61938 6
      vertex 6.03552 3.53552 5
      vertex 4.41341 4.61938 5
    endloop
  endfacet
  facet normal 0.1951 0.980783 -0
    outer loop
      vertex 4.41341 4.61938 5
      vertex 2.5 5 6
      vertex 4.41341 4.61938 6
    endloop
  endfacet
  facet normal 0.1951 0.980783 0
    outer loop
      vertex 2.5 5 6
      vertex 4.41341 4.61938 5
      vertex 2.5 5 5
    endloop
  endfacet
  facet normal 0 1 -0
    outer loop
      vertex 2.5 5 5
      vertex -2.5 5 6
      vertex 2.5 5 6
    endloop
  endfacet
  facet normal 0 1 0
    outer loop
      vertex -2.5 5 6
      vertex 2.5 5 5
      vertex -2.5 5 5
    endloop
  endfacet
  facet normal -1 0 0
    outer loop
      vertex -2.5 -5 5
      vertex -2.5 5 6
      vertex -2.5 5 5
    endloop
  endfacet
  facet normal -1 -0 0
    outer loop
      vertex -2.5 5 6
      vertex -2.5 -5 5
      vertex -2.5 -5 6
    endloop
  endfacet
  facet normal 0 -1 0
    outer loop
      vertex -2.5 -5 5
      vertex 2.5 -5 6
      vertex -2.5 -5 6
    endloop
  endfacet
  facet normal 0 -1 -0
    outer loop
      vertex 2.5 -5 6
      vertex -2.5 -5 5
      vertex 2.5 -5 5
    endloop
  endfacet
  facet normal 0.1951 -0.980783 0
    outer loop
      vertex 2.5 -5 5
      vertex 4.41341 -4.61938 6
      vertex 2.5 -5 6
    endloop
  endfacet
  facet normal 0.1951 -0.980783 0
    outer loop
      vertex 4.41341 -4.61938 6
      vertex 2.5 -5 5
      vertex 4.41341 -4.61938 5
    endloop
  endfacet
  facet normal 1 -0 0
    outer loop
      vertex 1.59999 3.59999 6
      vertex 1.59999 4.39999 5
      vertex 1.59999 4.39999 6
    endloop
  endfacet
  facet normal 1 0 0
    outer loop
      vertex 1.59999 4.39999 5
      vertex 1.59999 3.59999 6
      vertex 1.59999 3.59999 5
    endloop
  endfacet
  facet normal 0 -1 0
    outer loop
      vertex 1.59999 4.39999 5
      vertex 1.6 4.39999 6
      vertex 1.59999 4.39999 6
    endloop
  endfacet
  facet normal 0 -1 -0
    outer loop
      vertex 1.6 4.39999 6
      vertex 1.59999 4.39999 5
      vertex 1.6 4.39999 5
    endloop
  endfacet
  facet normal -1 0 0
    outer loop
      vertex 2.39999 3.59999 5
      vertex 2.39999 3.6 6
      vertex 2.39999 3.6 5
    endloop
  endfacet
  facet normal -1 -0 0
    outer loop
      vertex 2.39999 3.6 6
      vertex 2.39999 3.59999 5
      vertex 2.39999 3.59999 6
    endloop
  endfacet
  facet normal 0 1 -0
    outer loop
      vertex 2.39999 3.59999 5
      vertex 1.59999 3.59999 6
      vertex 2.39999 3.59999 6
    endloop
  endfacet
  facet normal 0 1 0
    outer loop
      vertex 1.59999 3.59999 6
      vertex 2.39999 3.59999 5
      vertex 1.59999 3.59999 5
    endloop
  endfacet
  facet normal 1 -0 0
    outer loop
      vertex -1.04999 3.59999 6
      vertex -1.04999 3.6 5
      vertex -1.04999 3.6 6
    endloop
  endfacet
  facet normal 1 0 0
    outer loop
      vertex -1.04999 3.6 5
      vertex -1.04999 3.59999 6
      vertex -1.04999 3.59999 5
    endloop
  endfacet
  facet normal 0 -1 0
    outer loop
      vertex -0.25 4.39999 5
      vertex -0.249985 4.39999 6
      vertex -0.25 4.39999 6
    endloop
  endfacet
  facet normal 0 -1 -0
    outer loop
      vertex -0.249985 4.39999 6
      vertex -0.25 4.39999 5
      vertex -0.249985 4.39999 5
    endloop
  endfacet
  facet normal -1 0 0
    outer loop
      vertex -0.249985 3.59999 5
      vertex -0.249985 4.39999 6
      vertex -0.249985 4.39999 5
    endloop
  endfacet
  facet normal -1 -0 0
    outer loop
      vertex -0.249985 4.39999 6
      vertex -0.249985 3.59999 5
      vertex -0.249985 3.59999 6
    endloop
  endfacet
  facet normal 0 1 -0
    outer loop
      vertex -0.249985 3.59999 5
      vertex -1.04999 3.59999 6
      vertex -0.249985 3.59999 6
    endloop
  endfacet
  facet normal 0 1 0
    outer loop
      vertex -1.04999 3.59999 6
      vertex -0.249985 3.59999 5
      vertex -1.04999 3.59999 5
    endloop
  endfacet
  facet normal 1 -0 0
    outer loop
      vertex -0.5 -3 6
      vertex -0.5 3 5
      vertex -0.5 3 6
    endloop
  endfacet
  facet normal 1 0 0
    outer loop
      vertex -0.5 3 5
      vertex -0.5 -3 6
      vertex -0.5 -3 5
    endloop
  endfacet
  facet normal 0 -1 0
    outer loop
      vertex -0.5 3 5
      vertex 2.30302 3 6
      vertex -0.5 3 6
    endloop
  endfacet
  facet normal 0 -1 -0
    outer loop
      vertex 2.30302 3 6
      vertex -0.5 3 5
      vertex 2.30302 3 5
    endloop
  endfacet
  facet normal -0.195099 -0.980784 0
    outer loop
      vertex 2.30302 3 5
      vertex 3.63304 2.73543 6
      vertex 2.30302 3 6
    endloop
  endfacet
  facet normal -0.195099 -0.980784 -0
    outer loop
      vertex 3.63304 2.73543 6
      vertex 2.30302 3 5
      vertex 3.63304 2.73543 5
    endloop
  endfacet
  facet normal -0.555573 -0.831468 0
    outer loop
      vertex 3.63304 2.73543 5
      vertex 4.5936 2.0936 6
      vertex 3.63304 2.73543 6
    endloop
  endfacet
  facet normal -0.555573 -0.831468 -0
    outer loop
      vertex 4.5936 2.0936 6
      vertex 3.63304 2.73543 5
      vertex 4.5936 2.0936 5
    endloop
  endfacet
  facet normal -0.831468 -0.555573 0
    outer loop
      vertex 5.23543 1.13304 5
      vertex 4.5936 2.0936 6
      vertex 4.5936 2.0936 5
    endloop
  endfacet
  facet normal -0.831468 -0.555573 0
    outer loop
      vertex 4.5936 2.0936 6
      vertex 5.23543 1.13304 5
      vertex 5.23543 1.13304 6
    endloop
  endfacet
  facet normal -0.980783 -0.195102 0
    outer loop
      vertex 5.46082 0 5
      vertex 5.23543 1.13304 6
      vertex 5.23543 1.13304 5
    endloop
  endfacet
  facet normal -0.980783 -0.195102 0
    outer loop
      vertex 5.23543 1.13304 6
      vertex 5.46082 0 5
      vertex 5.46082 0 6
    endloop
  endfacet
  facet normal -0.980783 0.195102 0
    outer loop
      vertex 5.23543 -1.13304 5
      vertex 5.46082 0 6
      vertex 5.46082 0 5
    endloop
  endfacet
  facet normal -0.980783 0.195102 0
    outer loop
      vertex 5.46082 0 6
      vertex 5.23543 -1.13304 5
      vertex 5.23543 -1.13304 6
    endloop
  endfacet
  facet normal -0.831468 0.555573 0
    outer loop
      vertex 4.5936 -2.0936 5
      vertex 5.23543 -1.13304 6
      vertex 5.23543 -1.13304 5
    endloop
  endfacet
  facet normal -0.831468 0.555573 0
    outer loop
      vertex 5.23543 -1.13304 6
      vertex 4.5936 -2.0936 5
      vertex 4.5936 -2.0936 6
    endloop
  endfacet
  facet normal -0.555573 0.831468 0
    outer loop
      vertex 4.5936 -2.0936 5
      vertex 3.63304 -2.73543 6
      vertex 4.5936 -2.0936 6
    endloop
  endfacet
  facet normal -0.555573 0.831468 0
    outer loop
      vertex 3.63304 -2.73543 6
      vertex 4.5936 -2.0936 5
      vertex 3.63304 -2.73543 5
    endloop
  endfacet
  facet normal -0.195099 0.980784 0
    outer loop
      vertex 3.63304 -2.73543 5
      vertex 2.30302 -3 6
      vertex 3.63304 -2.73543 6
    endloop
  endfacet
  facet normal -0.195099 0.980784 0
    outer loop
      vertex 2.30302 -3 6
      vertex 3.63304 -2.73543 5
      vertex 2.30302 -3 5
    endloop
  endfacet
  facet normal 0 1 -0
    outer loop
      vertex 2.30302 -3 5
      vertex -0.5 -3 6
      vertex 2.30302 -3 6
    endloop
  endfacet
  facet normal 0 1 0
    outer loop
      vertex -0.5 -3 6
      vertex 2.30302 -3 5
      vertex -0.5 -3 5
    endloop
  endfacet
  facet normal 1 0 0
    outer loop
      vertex 6 0.399994 6
      vertex 6 0.190211 5.4382
      vertex 6 0.399994 5
    endloop
  endfacet
  facet normal 1 0 0
    outer loop
      vertex 6 0.399994 6
      vertex 6 0.117557 5.6618
      vertex 6 0.190211 5.4382
    endloop
  endfacet
  facet normal 1 0 0
    outer loop
      vertex 6 0.399994 6
      vertex 6 -0.117557 5.6618
      vertex 6 0.117557 5.6618
    endloop
  endfacet
  facet normal 1 0 0
    outer loop
      vertex 6 -0.117557 5.6618
      vertex 6 -0.399994 6
      vertex 6 -0.190211 5.4382
    endloop
  endfacet
  facet normal 1 -0 0
    outer loop
      vertex 6 -0.399994 6
      vertex 6 -0.117557 5.6618
      vertex 6 0.399994 6
    endloop
  endfacet
  facet normal 1 -0 0
    outer loop
      vertex 6 0 5.3
      vertex 6 0.399994 5
      vertex 6 0.190211 5.4382
    endloop
  endfacet
  facet normal 1 0 0
    outer loop
      vertex 6 -0.399994 5
      vertex 6 0 5.3
      vertex 6 -0.190211 5.4382
    endloop
  endfacet
  facet normal 1 0 0
    outer loop
      vertex 6 0 5.3
      vertex 6 -0.399994 5
      vertex 6 0.399994 5
    endloop
  endfacet
  facet normal 1 0 0
    outer loop
      vertex 6 -0.399994 5
      vertex 6 -0.190211 5.4382
      vertex 6 -0.399994 6
    endloop
  endfacet
  facet normal 1 0 0
    outer loop
      vertex 6 0.117557 5.6618
      vertex 6 0 5.3
      vertex 6 0.190211 5.4382
    endloop
  endfacet
  facet normal 1 -0 0
    outer loop
      vertex 6 -0.117557 5.6618
      vertex 6 0 5.3
      vertex 6 0.117557 5.6618
    endloop
  endfacet
  facet normal 1 0 0
    outer loop
      vertex 6 0 5.3
      vertex 6 -0.117557 5.6618
      vertex 6 -0.190211 5.4382
    endloop
  endfacet
  facet normal 0 -1 0
    outer loop
      vertex 6 0.399994 5
      vertex 6.79999 0.399994 6
      vertex 6 0.399994 6
    endloop
  endfacet
  facet normal 0 -1 -0
    outer loop
      vertex 6.79999 0.399994 6
      vertex 6 0.399994 5
      vertex 6.79999 0.399994 5
    endloop
  endfacet
  facet normal -1 0 0
    outer loop
      vertex 6.79999 0.399994 5
      vertex 6.79999 0.190211 5.4382
      vertex 6.79999 0.399994 6
    endloop
  endfacet
  facet normal -1 0 0
    outer loop
      vertex 6.79999 0.399994 5
      vertex 6.79999 0 5.3
      vertex 6.79999 0.190211 5.4382
    endloop
  endfacet
  facet normal -1 0 0
    outer loop
      vertex 6.79999 -0.399994 5
      vertex 6.79999 0 5.3
      vertex 6.79999 0.399994 5
    endloop
  endfacet
  facet normal -1 -0 0
    outer loop
      vertex 6.79999 0 5.3
      vertex 6.79999 -0.399994 5
      vertex 6.79999 -0.190211 5.4382
    endloop
  endfacet
  facet normal -1 0 0
    outer loop
      vertex 6.79999 0.117557 5.6618
      vertex 6.79999 0.399994 6
      vertex 6.79999 0.190211 5.4382
    endloop
  endfacet
  facet normal -1 0 0
    outer loop
      vertex 6.79999 -0.117557 5.6618
      vertex 6.79999 0.399994 6
      vertex 6.79999 0.117557 5.6618
    endloop
  endfacet
  facet normal -1 0 0
    outer loop
      vertex 6.79999 -0.399994 6
      vertex 6.79999 -0.190211 5.4382
      vertex 6.79999 -0.399994 5
    endloop
  endfacet
  facet normal -1 0 0
    outer loop
      vertex 6.79999 -0.117557 5.6618
      vertex 6.79999 -0.399994 6
      vertex 6.79999 0.399994 6
    endloop
  endfacet
  facet normal -1 0 0
    outer loop
      vertex 6.79999 -0.190211 5.4382
      vertex 6.79999 -0.399994 6
      vertex 6.79999 -0.117557 5.6618
    endloop
  endfacet
  facet normal 0 1 -0
    outer loop
      vertex 6.79999 -0.399994 5
      vertex 6 -0.399994 6
      vertex 6.79999 -0.399994 6
    endloop
  endfacet
  facet normal 0 1 0
    outer loop
      vertex 6 -0.399994 6
      vertex 6.79999 -0.399994 5
      vertex 6 -0.399994 5
    endloop
  endfacet
  facet normal 1 -0 0
    outer loop
      vertex 1.59999 -4.39999 6
      vertex 1.59999 -3.59999 5
      vertex 1.59999 -3.59999 6
    endloop
  endfacet
  facet normal 1 0 0
    outer loop
      vertex 1.59999 -3.59999 5
      vertex 1.59999 -4.39999 6
      vertex 1.59999 -4.39999 5
    endloop
  endfacet
  facet normal 0 -1 0
    outer loop
      vertex 1.59999 -3.59999 5
      vertex 2.39999 -3.59999 6
      vertex 1.59999 -3.59999 6
    endloop
  endfacet
  facet normal 0 -1 -0
    outer loop
      vertex 2.39999 -3.59999 6
      vertex 1.59999 -3.59999 5
      vertex 2.39999 -3.59999 5
    endloop
  endfacet
  facet normal -1 0 0
    outer loop
      vertex 2.39999 -3.6 5
      vertex 2.39999 -3.59999 6
      vertex 2.39999 -3.59999 5
    endloop
  endfacet
  facet normal -1 -0 0
    outer loop
      vertex 2.39999 -3.59999 6
      vertex 2.39999 -3.6 5
      vertex 2.39999 -3.6 6
    endloop
  endfacet
  facet normal 0 1 -0
    outer loop
      vertex 1.6 -4.39999 5
      vertex 1.59999 -4.39999 6
      vertex 1.6 -4.39999 6
    endloop
  endfacet
  facet normal 0 1 0
    outer loop
      vertex 1.59999 -4.39999 6
      vertex 1.6 -4.39999 5
      vertex 1.59999 -4.39999 5
    endloop
  endfacet
  facet normal 1 -0 0
    outer loop
      vertex -1.04999 -3.6 6
      vertex -1.04999 -3.59999 5
      vertex -1.04999 -3.59999 6
    endloop
  endfacet
  facet normal 1 0 0
    outer loop
      vertex -1.04999 -3.59999 5
      vertex -1.04999 -3.6 6
      vertex -1.04999 -3.6 5
    endloop
  endfacet
  facet normal 0 -1 0
    outer loop
      vertex -1.04999 -3.59999 5
      vertex -0.249985 -3.59999 6
      vertex -1.04999 -3.59999 6
    endloop
  endfacet
  facet normal 0 -1 -0
    outer loop
      vertex -0.249985 -3.59999 6
      vertex -1.04999 -3.59999 5
      vertex -0.249985 -3.59999 5
    endloop
  endfacet
  facet normal -1 0 0
    outer loop
      vertex -0.249985 -4.39999 5
      vertex -0.249985 -3.59999 6
      vertex -0.249985 -3.59999 5
    endloop
  endfacet
  facet normal -1 -0 0
    outer loop
      vertex -0.249985 -3.59999 6
      vertex -0.249985 -4.39999 5
      vertex -0.249985 -4.39999 6
    endloop
  endfacet
  facet normal 0 1 -0
    outer loop
      vertex -0.249985 -4.39999 5
      vertex -0.25 -4.39999 6
      vertex -0.249985 -4.39999 6
    endloop
  endfacet
  facet normal 0 1 0
    outer loop
      vertex -0.25 -4.39999 6
      vertex -0.249985 -4.39999 5
      vertex -0.25 -4.39999 5
    endloop
  endfacet
  facet normal -0 -0.951054 -0.309025
    outer loop
      vertex 7.46216 0.190211 5.4382
      vertex 6.79999 0.117557 5.6618
      vertex 6.79999 0.190211 5.4382
    endloop
  endfacet
  facet normal 0 -0.951054 -0.309025
    outer loop
      vertex 6.79999 0.117557 5.6618
      vertex 7.46216 0.190211 5.4382
      vertex 7.47662 0.117557 5.6618
    endloop
  endfacet
  facet normal 0 0 -1
    outer loop
      vertex 7.47662 -0.117557 5.6618
      vertex 7.47662 0.117557 5.6618
      vertex 7.5 0 5.6618
    endloop
  endfacet
  facet normal 0 0 -1
    outer loop
      vertex 6.79999 -0.117557 5.6618
      vertex 7.47662 0.117557 5.6618
      vertex 7.47662 -0.117557 5.6618
    endloop
  endfacet
  facet normal -0 0 -1
    outer loop
      vertex 7.47662 0.117557 5.6618
      vertex 6.79999 -0.117557 5.6618
      vertex 6.79999 0.117557 5.6618
    endloop
  endfacet
  facet normal 0 0.951054 -0.309025
    outer loop
      vertex 7.46216 -0.190211 5.4382
      vertex 6.79999 -0.117557 5.6618
      vertex 7.47662 -0.117557 5.6618
    endloop
  endfacet
  facet normal 0 0.951054 -0.309025
    outer loop
      vertex 6.79999 -0.117557 5.6618
      vertex 7.46216 -0.190211 5.4382
      vertex 6.79999 -0.190211 5.4382
    endloop
  endfacet
  facet normal 0 -0.587795 0.80901
    outer loop
      vertex 6.79999 0 5.3
      vertex 7.46216 0.190211 5.4382
      vertex 6.79999 0.190211 5.4382
    endloop
  endfacet
  facet normal 0 -0.587795 0.80901
    outer loop
      vertex 7.46216 0.190211 5.4382
      vertex 6.79999 0 5.3
      vertex 7.5 0 5.3
    endloop
  endfacet
  facet normal -0 0.587795 0.80901
    outer loop
      vertex 6.79999 0 5.3
      vertex 7.46216 -0.190211 5.4382
      vertex 7.5 0 5.3
    endloop
  endfacet
  facet normal 0 0.587795 0.80901
    outer loop
      vertex 7.46216 -0.190211 5.4382
      vertex 6.79999 0 5.3
      vertex 6.79999 -0.190211 5.4382
    endloop
  endfacet
  facet normal 1 -0 0
    outer loop
      vertex 2.4 3.6 5
      vertex 2.4 4.4 -4
      vertex 2.4 4.4 5
    endloop
  endfacet
  facet normal 1 0 0
    outer loop
      vertex 2.4 4.4 -4
      vertex 2.4 3.6 5
      vertex 2.4 3.6 -4
    endloop
  endfacet
  facet normal -1 0 0
    outer loop
      vertex 1.6 3.6 -5
      vertex 1.6 4.39999 -4
      vertex 1.6 4.39999 -5
    endloop
  endfacet
  facet normal -1 -0 0
    outer loop
      vertex 1.6 4.39999 -4
      vertex 1.6 3.6 -5
      vertex 1.6 4.39999 5
    endloop
  endfacet
  facet normal -1 0 0
    outer loop
      vertex 1.6 3.6 6
      vertex 1.6 4.39999 5
      vertex 1.6 3.6 -5
    endloop
  endfacet
  facet normal -1 0 0
    outer loop
      vertex 1.6 4.39999 5
      vertex 1.6 3.6 6
      vertex 1.6 4.39999 6
    endloop
  endfacet
  facet normal -1 0 0
    outer loop
      vertex 1.6 4.39999 -4
      vertex 1.6 4.4 5
      vertex 1.6 4.4 -4
    endloop
  endfacet
  facet normal -1 -0 0
    outer loop
      vertex 1.6 4.4 5
      vertex 1.6 4.39999 -4
      vertex 1.6 4.39999 5
    endloop
  endfacet
  facet normal 0 1 -0
    outer loop
      vertex 2.4 4.4 -4
      vertex 1.6 4.4 5
      vertex 2.4 4.4 5
    endloop
  endfacet
  facet normal 0 1 0
    outer loop
      vertex 1.6 4.4 5
      vertex 2.4 4.4 -4
      vertex 1.6 4.4 -4
    endloop
  endfacet
  facet normal 0 -1 0
    outer loop
      vertex 1.6 3.6 6
      vertex 2.39999 3.6 5
      vertex 2.39999 3.6 6
    endloop
  endfacet
  facet normal 0 -1 0
    outer loop
      vertex 2.39999 3.6 5
      vertex 2.39999 3.6 -4
      vertex 2.4 3.6 5
    endloop
  endfacet
  facet normal 0 -1 0
    outer loop
      vertex 1.6 3.6 6
      vertex 2.39999 3.6 -4
      vertex 2.39999 3.6 5
    endloop
  endfacet
  facet normal 0 -1 0
    outer loop
      vertex 1.6 3.6 -5
      vertex 2.39999 3.6 -4
      vertex 1.6 3.6 6
    endloop
  endfacet
  facet normal 0 -1 -0
    outer loop
      vertex 2.39999 3.6 -4
      vertex 1.6 3.6 -5
      vertex 2.39999 3.6 -5
    endloop
  endfacet
  facet normal 0 -1 -0
    outer loop
      vertex 2.4 3.6 5
      vertex 2.39999 3.6 -4
      vertex 2.4 3.6 -4
    endloop
  endfacet
  facet normal 1 -0 0
    outer loop
      vertex -0.25 3.6 6
      vertex -0.25 4.39999 5
      vertex -0.25 4.39999 6
    endloop
  endfacet
  facet normal 1 0 0
    outer loop
      vertex -0.25 4.39999 5
      vertex -0.25 3.6 6
      vertex -0.25 4.39999 -4
    endloop
  endfacet
  facet normal 1 0 0
    outer loop
      vertex -0.25 3.6 -5
      vertex -0.25 4.39999 -4
      vertex -0.25 3.6 6
    endloop
  endfacet
  facet normal 1 0 0
    outer loop
      vertex -0.25 4.39999 -4
      vertex -0.25 3.6 -5
      vertex -0.25 4.39999 -5
    endloop
  endfacet
  facet normal 1 -0 0
    outer loop
      vertex -0.25 4.39999 5
      vertex -0.25 4.4 -4
      vertex -0.25 4.4 5
    endloop
  endfacet
  facet normal 1 0 0
    outer loop
      vertex -0.25 4.4 -4
      vertex -0.25 4.39999 5
      vertex -0.25 4.39999 -4
    endloop
  endfacet
  facet normal -1 0 0
    outer loop
      vertex -1.05 3.6 -4
      vertex -1.05 4.4 5
      vertex -1.05 4.4 -4
    endloop
  endfacet
  facet normal -1 -0 0
    outer loop
      vertex -1.05 4.4 5
      vertex -1.05 3.6 -4
      vertex -1.05 3.6 5
    endloop
  endfacet
  facet normal 0 1 -0
    outer loop
      vertex -0.25 4.4 -4
      vertex -1.05 4.4 5
      vertex -0.25 4.4 5
    endloop
  endfacet
  facet normal 0 1 0
    outer loop
      vertex -1.05 4.4 5
      vertex -0.25 4.4 -4
      vertex -1.05 4.4 -4
    endloop
  endfacet
  facet normal 0 -1 0
    outer loop
      vertex -1.05 3.6 5
      vertex -1.05 3.6 -4
      vertex -1.04999 3.6 5
    endloop
  endfacet
  facet normal 0 -1 0
    outer loop
      vertex -1.04999 3.6 5
      vertex -0.25 3.6 6
      vertex -1.04999 3.6 6
    endloop
  endfacet
  facet normal 0 -1 0
    outer loop
      vertex -1.04999 3.6 -4
      vertex -1.04999 3.6 5
      vertex -1.05 3.6 -4
    endloop
  endfacet
  facet normal 0 -1 0
    outer loop
      vertex -1.04999 3.6 5
      vertex -1.04999 3.6 -4
      vertex -0.25 3.6 6
    endloop
  endfacet
  facet normal 0 -1 0
    outer loop
      vertex -0.25 3.6 -5
      vertex -1.04999 3.6 -4
      vertex -1.04999 3.6 -5
    endloop
  endfacet
  facet normal 0 -1 0
    outer loop
      vertex -1.04999 3.6 -4
      vertex -0.25 3.6 -5
      vertex -0.25 3.6 6
    endloop
  endfacet
  facet normal 1 -0 0
    outer loop
      vertex 2.4 -4.4 5
      vertex 2.4 -3.6 -4
      vertex 2.4 -3.6 5
    endloop
  endfacet
  facet normal 1 0 0
    outer loop
      vertex 2.4 -3.6 -4
      vertex 2.4 -4.4 5
      vertex 2.4 -4.4 -4
    endloop
  endfacet
  facet normal -1 0 0
    outer loop
      vertex 1.6 -4.4 -4
      vertex 1.6 -4.39999 5
      vertex 1.6 -4.39999 -4
    endloop
  endfacet
  facet normal -1 -0 0
    outer loop
      vertex 1.6 -4.39999 5
      vertex 1.6 -4.4 -4
      vertex 1.6 -4.4 5
    endloop
  endfacet
  facet normal -1 0 0
    outer loop
      vertex 1.6 -4.39999 -4
      vertex 1.6 -3.6 -5
      vertex 1.6 -4.39999 -5
    endloop
  endfacet
  facet normal -1 0 0
    outer loop
      vertex 1.6 -3.6 -5
      vertex 1.6 -4.39999 -4
      vertex 1.6 -3.6 6
    endloop
  endfacet
  facet normal -1 0 0
    outer loop
      vertex 1.6 -4.39999 5
      vertex 1.6 -3.6 6
      vertex 1.6 -4.39999 -4
    endloop
  endfacet
  facet normal -1 -0 0
    outer loop
      vertex 1.6 -3.6 6
      vertex 1.6 -4.39999 5
      vertex 1.6 -4.39999 6
    endloop
  endfacet
  facet normal 0 1 0
    outer loop
      vertex 2.4 -3.6 5
      vertex 2.4 -3.6 -4
      vertex 2.39999 -3.6 5
    endloop
  endfacet
  facet normal 0 1 -0
    outer loop
      vertex 2.39999 -3.6 5
      vertex 1.6 -3.6 6
      vertex 2.39999 -3.6 6
    endloop
  endfacet
  facet normal 0 1 0
    outer loop
      vertex 2.39999 -3.6 -4
      vertex 2.39999 -3.6 5
      vertex 2.4 -3.6 -4
    endloop
  endfacet
  facet normal 0 1 0
    outer loop
      vertex 2.39999 -3.6 5
      vertex 2.39999 -3.6 -4
      vertex 1.6 -3.6 6
    endloop
  endfacet
  facet normal 0 1 0
    outer loop
      vertex 1.6 -3.6 -5
      vertex 2.39999 -3.6 -4
      vertex 2.39999 -3.6 -5
    endloop
  endfacet
  facet normal 0 1 0
    outer loop
      vertex 2.39999 -3.6 -4
      vertex 1.6 -3.6 -5
      vertex 1.6 -3.6 6
    endloop
  endfacet
  facet normal 0 -1 0
    outer loop
      vertex 1.6 -4.4 -4
      vertex 2.4 -4.4 5
      vertex 1.6 -4.4 5
    endloop
  endfacet
  facet normal 0 -1 -0
    outer loop
      vertex 2.4 -4.4 5
      vertex 1.6 -4.4 -4
      vertex 2.4 -4.4 -4
    endloop
  endfacet
  facet normal 1 -0 0
    outer loop
      vertex -0.25 -4.4 5
      vertex -0.25 -4.39999 -4
      vertex -0.25 -4.39999 5
    endloop
  endfacet
  facet normal 1 0 0
    outer loop
      vertex -0.25 -4.39999 -4
      vertex -0.25 -4.4 5
      vertex -0.25 -4.4 -4
    endloop
  endfacet
  facet normal 1 0 0
    outer loop
      vertex -0.25 -4.39999 5
      vertex -0.25 -3.6 6
      vertex -0.25 -4.39999 6
    endloop
  endfacet
  facet normal 1 0 0
    outer loop
      vertex -0.25 -3.6 6
      vertex -0.25 -4.39999 5
      vertex -0.25 -3.6 -5
    endloop
  endfacet
  facet normal 1 -0 0
    outer loop
      vertex -0.25 -4.39999 -4
      vertex -0.25 -3.6 -5
      vertex -0.25 -4.39999 5
    endloop
  endfacet
  facet normal 1 0 0
    outer loop
      vertex -0.25 -3.6 -5
      vertex -0.25 -4.39999 -4
      vertex -0.25 -4.39999 -5
    endloop
  endfacet
  facet normal -1 0 0
    outer loop
      vertex -1.05 -4.4 -4
      vertex -1.05 -3.6 5
      vertex -1.05 -3.6 -4
    endloop
  endfacet
  facet normal -1 -0 0
    outer loop
      vertex -1.05 -3.6 5
      vertex -1.05 -4.4 -4
      vertex -1.05 -4.4 5
    endloop
  endfacet
  facet normal 0 1 0
    outer loop
      vertex -0.25 -3.6 6
      vertex -1.04999 -3.6 5
      vertex -1.04999 -3.6 6
    endloop
  endfacet
  facet normal 0 1 0
    outer loop
      vertex -1.04999 -3.6 5
      vertex -1.04999 -3.6 -4
      vertex -1.05 -3.6 5
    endloop
  endfacet
  facet normal 0 1 0
    outer loop
      vertex -0.25 -3.6 6
      vertex -1.04999 -3.6 -4
      vertex -1.04999 -3.6 5
    endloop
  endfacet
  facet normal 0 1 -0
    outer loop
      vertex -0.25 -3.6 -5
      vertex -1.04999 -3.6 -4
      vertex -0.25 -3.6 6
    endloop
  endfacet
  facet normal 0 1 0
    outer loop
      vertex -1.04999 -3.6 -4
      vertex -0.25 -3.6 -5
      vertex -1.04999 -3.6 -5
    endloop
  endfacet
  facet normal 0 1 0
    outer loop
      vertex -1.05 -3.6 5
      vertex -1.04999 -3.6 -4
      vertex -1.05 -3.6 -4
    endloop
  endfacet
  facet normal 0 -1 0
    outer loop
      vertex -1.05 -4.4 -4
      vertex -0.25 -4.4 5
      vertex -1.05 -4.4 5
    endloop
  endfacet
  facet normal 0 -1 -0
    outer loop
      vertex -0.25 -4.4 5
      vertex -1.05 -4.4 -4
      vertex -0.25 -4.4 -4
    endloop
  endfacet
endsolid OpenSCAD_Model
